{
    "_id": "d3YklujLpBFC5HfB",
    "data": {
        "attributes": {
            "ac": {
                "value": 10
            },
            "hardness": 0,
            "hasHealth": false,
            "hp": {
                "details": "",
                "max": 0,
                "temp": 0,
                "tempmax": 0,
                "value": 0
            },
            "stealth": {
                "details": "(expert)",
                "value": 10
            }
        },
        "creatureType": "",
        "details": {
            "description": "A choir of lost souls rises out of the floor, singing an eerie chant that terrifies its listeners and buffets their bodies with walls of sound.",
            "disable": "DC 28 Performance (trained) to disrupt the song's resonance with another tune or DC 28 Religion (trained) to ritually silence the spirits",
            "isComplex": false,
            "level": 6,
            "reset": "",
            "routine": ""
        },
        "flavourText": "",
        "nethysUrl": "",
        "recallKnowledgeText": "",
        "saves": {
            "fortitude": {
                "rank": 0,
                "saveDetail": "",
                "value": 0
            },
            "reflex": {
                "rank": 0,
                "saveDetail": "",
                "value": 0
            },
            "will": {
                "rank": 0,
                "saveDetail": "",
                "value": 0
            }
        },
        "schema": {
            "version": {
                "value": ""
            }
        },
        "sidebarText": "",
        "source": {
            "value": ""
        },
        "statusEffects": [],
        "traits": {
            "ci": [],
            "di": {
                "custom": "",
                "selected": {},
                "value": []
            },
            "dr": [],
            "dv": [],
            "traits": {
                "custom": "",
                "value": [
                    "haunt"
                ]
            }
        }
    },
    "flags": {},
    "img": "icons/svg/mystery-man.svg",
    "items": [
        {
            "_id": "oZGdTS4jvoAj1myH",
            "data": {
                "actionCategory": {
                    "value": ""
                },
                "actionType": {
                    "value": "reaction"
                },
                "actions": {
                    "value": ""
                },
                "description": {
                    "chat": "",
                    "unidentified": "",
                    "value": "<b>Trigger</b> A creature moves within 10 feet of the section of floor from which the choir can arise. <br /><b>Effect</b> The choir rises, and its song deals 4d8+18 mental damage to non-evil creatures within 30 feet of the souls' spectral forms. Affected creatures must each attempt a DC 24 Will save.<br /><br /><b>Critical Success</b> The creature is unaffected.<br /><b>Success</b> The creature takes half damage and becomes frightened 1.<br /><b>Failure</b> The creature takes full damage and becomes frightened 2.<br /><b>Critical Failure</b> The creature takes double damage. It also becomes frightened 3 and fleeing for 1 round."
                },
                "rarity": {
                    "value": "common"
                },
                "requirements": {
                    "value": ""
                },
                "skill_requirements": {
                    "rank": "",
                    "skill": ""
                },
                "source": {
                    "value": ""
                },
                "traits": {
                    "custom": "",
                    "value": [
                        "auditory",
                        "emotion",
                        "enchantment",
                        "fear",
                        "mental",
                        "occult"
                    ]
                },
                "trigger": {
                    "value": ""
                },
                "usage": {
                    "value": "held-in-one-hand"
                },
                "weapon": {
                    "value": ""
                }
            },
            "flags": {},
            "img": "systems/pf2e/icons/actions/Reaction.png",
            "name": "Profane Chant",
            "type": "action"
        }
    ],
    "name": "Ghostly Choir",
    "permission": {
        "default": 0
    },
    "token": {
        "actorData": {},
        "actorId": "d3YklujLpBFC5HfB",
        "actorLink": false,
        "bar1": {},
        "bar2": {},
        "brightLight": 0,
        "brightSight": 0,
        "dimLight": 0,
        "dimSight": 0,
        "displayBars": 0,
        "displayName": 0,
        "disposition": -1,
        "flags": {},
        "height": 1,
        "img": "icons/svg/mystery-man.svg",
        "lightAlpha": 1,
        "lightAngle": 360,
        "lockRotation": false,
        "name": "Ghostly Choir",
        "randomImg": false,
        "rotation": 0,
        "scale": 1,
        "sightAngle": 360,
        "tint": null,
        "vision": false,
        "width": 1
    },
    "type": "hazard"
}
