{
    "_id": "y6Df6HCrzc5kuLAJ",
    "content": "<p>Your dedication to the scientific inquiry of your native Alkenstar provides great insight into mechanical and chemical innovation.</p>\n<p>Choose two ability boosts. One must be to <strong>Dexterity</strong>  or <strong>Intelligence</strong>, and one is a free ability boost.</p>\n<p>You're trained in the Crafting skill and the Engineering Lore skill. You gain the @Compendium[pf2e.feats-srd.Alchemical Crafting]{Alchemical Crafting} skill feat.</p>",
    "flags": {},
    "name": "Alkenstar Tinker",
    "permission": {
        "default": 0
    }
}
