{
    "_id": "JfOPdd8V2CuN9I9a",
    "content": "<p>You joined a secret society dedicated to freeing halfling slaves, most likely from the cruelty of Chelish reign. You know how to smuggle people in and out of countries.</p>\n<p>Choose two ability boosts. One must be to <strong>Dexterity</strong> or <strong>Charisma</strong>, and one is a free ability boost.</p>\n<p>You're trained in the Stealth skill and the Underworld Lore skill. You gain the @Compendium[pf2e.feats-srd.Experienced Smuggler]{Experienced Smuggler} skill feat.</p>",
    "flags": {},
    "name": "Bellflower Agent",
    "permission": {
        "default": 0
    }
}
