{
    "_id": "R3z7yfqV0OyODRK8",
    "content": "<p><span id=\"ctl00_MainContent_DetailedOutput\">As an unscrupulous independent or as a member of an underworld organization, you lived a life of crime. You might have become an adventurer to seek redemption, to escape the law, or simply to get access to bigger and better loot.<br /></span></p>\n<p><span id=\"ctl00_MainContent_DetailedOutput\">Choose two ability boosts. One must be to <strong>Dexterity</strong> or <strong>Intelligence</strong>, and one is a free ability boost.<br /></span></p>\n<p><span id=\"ctl00_MainContent_DetailedOutput\">You're trained in the Stealth skill and the Underworld Lore skill. You gain the @Compendium[pf2e.feats-srd.Experienced Smuggler]{Experienced Smuggler} skill feat.</span></p>",
    "flags": {},
    "name": "Criminal",
    "permission": {
        "default": 0
    }
}
