{
    "_id": "y73tZ9iU3w84NrIG",
    "content": "<p><span id=\"ctl00_MainContent_DetailedOutput\">Dragons have fascinated you for as long as you can remember. The potent power they possess, the long lives they lead, the ancient traditions they inspire-whatever the source of your interest, you've spent much of your life to this point immersed in all things draconic. These studies have bolstered your self-confidence and given you a wide range of methods and tactics you can use to impose your will on others.<br /></span></p>\n<p><span id=\"ctl00_MainContent_DetailedOutput\">You've likely chosen to attend the Call for Heroes as a way to seek funds as an adventurer to afford more texts about dragons or perhaps out of a desire to encounter one in real life.<br /></span></p>\n<p><span id=\"ctl00_MainContent_DetailedOutput\">Choose two ability boosts. One must be to <strong>Strength</strong> or <strong>Charisma</strong>, and one is a free ability boost.<br /></span></p>\n<p><span id=\"ctl00_MainContent_DetailedOutput\">You're trained in the </span><u>Intimidation</u> skill, and the <u>Dragon Lore</u> skill. You gain the @Compendium[pf2e.feats-srd.Intimidating Glare]{Intimidating Glare} skill feat.</p>",
    "flags": {},
    "name": "Dragon Scholar",
    "permission": {
        "default": 0
    }
}
