{
    "_id": "PG0jDgRCfzuv8mrF",
    "content": "<p>You follow the philosophy of the Prophecies of Kalistrade, seeking to build up your wealth in this life so that you might meet the next world on your own terms.</p>\n<p>Choose two ability boosts. One must be to <strong>Constitution</strong>  or <strong>Intelligence</strong>, and one is a free ability boost.</p>\n<p>You're trained in the Diplomacy skill and the Kalistrade Lore skill. You gain the @Compendium[pf2e.feats-srd.Bargain Hunter]{Bargain Hunter} skill feat.</p>",
    "flags": {},
    "name": "Kalistrade Follower",
    "permission": {
        "default": 0
    }
}
