{
    "_id": "Gj9PhLYrZCQxvuwh",
    "content": "<p>You aspire to perfect your body and mind in the tradition of Jalmeray's Houses of Perfection, honing your acrobatic skills and mental faculties in preparation for a lifetime pushing the edge of what most consider possible.</p>\n<p>Choose two ability boosts. One must be to <strong>Dexterity</strong>  or <strong>Wisdom</strong>, and one is a free ability boost.</p>\n<p>You're trained in the Acrobatics skill as well as the Warfare Lore skill. You gain the @Compendium[pf2e.feats-srd.Cat Fall]{Cat Fall} skill feat.</p>",
    "flags": {},
    "name": "Perfection Seeker",
    "permission": {
        "default": 0
    }
}
