{
    "_id": "LY8vRo3Pyn7FxWNj",
    "content": "<p><span id=\"ctl00_MainContent_DetailedOutput\">You might have been imprisoned for crimes (whether you were guilty or not), or enslaved for some part of your upbringing. In your adventuring life, you take full advantage of your newfound freedom.<br /></span></p>\n<p><span id=\"ctl00_MainContent_DetailedOutput\">Choose two ability boosts. One must be to <strong>Strength</strong> or <strong>Constitution</strong>, and one is a free ability boost.<br /></span></p>\n<p><span id=\"ctl00_MainContent_DetailedOutput\">You're trained in the Stealth skill and the Underworld Lore skill. You gain the @Compendium[pf2e.feats-srd.Experienced Smuggler]{Experienced Smuggler} skill feat.</span></p>",
    "flags": {},
    "name": "Prisoner",
    "permission": {
        "default": 0
    }
}
