{
    "_id": "rm9HYArb07JFDwjv",
    "content": "<p><span id=\"ctl00_MainContent_DetailedOutput\">You have a knack for learning, and sequestered yourself from the outside world to learn all you could. You read about so many wondrous places and things in your books, and always dreamed about one day seeing the real things. Eventually, that curiosity led you to leave your studies and become an adventurer.<br /></span></p>\n<p><span id=\"ctl00_MainContent_DetailedOutput\">Choose two ability boosts. One must be to <strong>Intelligence</strong> or <strong>Wisdom</strong>, and one is a free ability boost.<br /></span></p>\n<p><span id=\"ctl00_MainContent_DetailedOutput\">You're trained in your choice of the Arcana, Nature, Occultism, or Religion skill, and the Academia Lore skill. You gain the @Compendium[pf2e.feats-srd.Assurance]{Assurance} skill feat in your chosen skill.</span></p>",
    "flags": {},
    "name": "Scholar",
    "permission": {
        "default": 0
    }
}
