{
    "_id": "J7vQowV531Sz73Gw",
    "data": {
        "brokenThreshold": {
            "value": 0
        },
        "bulkCapacity": {
            "value": ""
        },
        "collapsed": {
            "value": false
        },
        "containerId": {
            "value": ""
        },
        "description": {
            "chat": "",
            "unidentified": "",
            "value": "<p>This black pearl sparkles with light. The resonant power allows you to cast @Compendium[pf2e.spells-srd.Sending]{Sending} once per day.</p>\n<hr />\n<p><strong>Activate</strong> <span style=\"font-family: 'Pathfinder2eActions'; font-size: 1.8em; display: inline;\">R</span> envision</p>\n<p><strong>Trigger</strong> you are targeted by a mental effect</p>\n<p><strong>Effect</strong> You receive a +4 status bonus to your saving throw against the triggering effect.</p>\n<p>Whether or not your save is successful, the aeon stone attempts a counteract check at <a class=\"inline-roll roll\" title=\"1d20+30\" data-mode=\"roll\" data-flavor=\"\" data-formula=\"1d20+30\"> 1d20+30</a> to immediately reflect a copy of the effect back at the originator, targeting it using the creature's own relevant statistics but controlling the effect as if you had cast it.</p>\n<p>Every time you activate this aeon stone, attempt a DC 5 flat check. On a failure, the stone shatters and loses its magical properties forever.</p>\n<p>@Compendium[pf2e.spell-effects.Effect: Aeon Stone (Black Pearl)]{Effect: Aeon Stone (Black Pearl)}</p>"
        },
        "equipped": {
            "value": false
        },
        "equippedBulk": {
            "value": ""
        },
        "hardness": {
            "value": 0
        },
        "hp": {
            "value": 0
        },
        "identified": {
            "value": true
        },
        "invested": {
            "value": false
        },
        "level": {
            "value": "12"
        },
        "maxHp": {
            "value": 0
        },
        "negateBulk": {
            "value": "0"
        },
        "preciousMaterial": {
            "value": ""
        },
        "preciousMaterialGrade": {
            "value": ""
        },
        "price": {
            "value": "2,000 gp"
        },
        "quantity": {
            "value": "1"
        },
        "rarity": {
            "value": "common"
        },
        "rules": [],
        "source": {
            "value": ""
        },
        "stackGroup": {
            "value": ""
        },
        "traits": {
            "custom": "",
            "rarity": {
                "value": "uncommon"
            },
            "usage": {
                "value": "worn"
            },
            "value": [
                "invested",
                "magical",
                "transmutation"
            ]
        },
        "usage": {
            "value": "held-in-one-hand"
        },
        "weight": {
            "value": "-"
        }
    },
    "effects": [],
    "flags": {},
    "img": "systems/pf2e/icons/equipment/worn-items/other-worn-items/aeon-stone-black-pearl.jpg",
    "name": "Aeon Stone (Black Pearl)",
    "permission": {
        "default": 0
    },
    "type": "equipment"
}
