{
    "_id": "2EOeljZiUdNVf8s2",
    "data": {
        "brokenThreshold": {
            "value": 0
        },
        "bulkCapacity": {
            "value": ""
        },
        "collapsed": {
            "value": false
        },
        "containerId": {
            "value": ""
        },
        "description": {
            "chat": "",
            "unidentified": "",
            "value": "<p>A <em>bullhook</em> is a stout rod about 4 feet long with a blunt hook on the end. Too dull to be useful as a weapon, a <em>bullhook</em> is instead used to direct animals in training or in performing their tasks. A <em>bullhook</em> grants you a +2 item bonus to Nature checks to Command an Animal while you are holding it.</p>\n<p><strong>Activate</strong> <span style=\"font-family: 'Pathfinder2eActions'; font-size: 1.8em; display: inline;\">D</span> command, Interact</p>\n<p><strong>Frequency</strong> once per day</p>\n<p><strong>Effect</strong> You wave the <em>bullhook</em> to produce the effects of a first level @Compendium[pf2e.spells-srd.Command]{Command} spell (DC 18). This spell loses the linguistic trait and can target only animals.</p>\n<p><strong>Craft Requirements</strong> Supply a casting of <em>command</em> of the appropriate level.</p>\n<hr />\n<p>Automatically applied effects:</p>\n<ul>\n<li>+2 item bonus to Nature checks to Command an Animal</li>\n</ul>"
        },
        "equipped": {
            "value": false
        },
        "equippedBulk": {
            "value": ""
        },
        "hardness": {
            "value": 0
        },
        "hp": {
            "value": 0
        },
        "identified": {
            "value": true
        },
        "invested": {
            "value": false
        },
        "level": {
            "value": "3"
        },
        "maxHp": {
            "value": 0
        },
        "negateBulk": {
            "value": ""
        },
        "preciousMaterial": {
            "value": ""
        },
        "preciousMaterialGrade": {
            "value": ""
        },
        "price": {
            "value": "55 gp"
        },
        "quantity": {
            "value": "1"
        },
        "rarity": {
            "value": "common"
        },
        "rules": [
            {
                "key": "PF2E.RuleElement.FlatModifier",
                "label": "Bullhook (Command an Animal)",
                "predicate": {
                    "any": [
                        "command-an-animal"
                    ]
                },
                "selector": "nature",
                "type": "item",
                "value": 2
            }
        ],
        "source": {
            "value": ""
        },
        "stackGroup": {
            "value": ""
        },
        "traits": {
            "custom": "",
            "rarity": {
                "value": "uncommon"
            },
            "usage": {
                "value": "held-in-one-hand"
            },
            "value": [
                "enchantment",
                "magical"
            ]
        },
        "usage": {
            "value": "held-in-one-hand"
        },
        "weight": {
            "value": "1"
        }
    },
    "flags": {},
    "img": "systems/pf2e/icons/equipment/held-items/bullhook.jpg",
    "name": "Bullhook",
    "permission": {
        "default": 0
    },
    "type": "equipment"
}
