{
    "_id": "DH0kB9Wbr5pDeunX",
    "data": {
        "brokenThreshold": {
            "value": 0
        },
        "bulkCapacity": {
            "value": ""
        },
        "collapsed": {
            "value": false
        },
        "containerId": {
            "value": ""
        },
        "description": {
            "chat": "",
            "unidentified": "",
            "value": "<p><span><em>Holy</em> weapons command powerful celestial energy. A weapon with this rune deals an extra 1d6 good damage against evil targets. If you are evil, you are enfeebled 2 while carrying or wielding this weapon.<br /></span></p>\n<p><span><strong>Activate</strong> <span style=\"font-family: 'Pathfinder2eActions'; font-size: 1.8em; display: inline;\">R</span> command; <strong>Frequency</strong> once per day; <strong>Trigger</strong> You critically succeed at an attack roll against an evil creature with the weapon; <strong>Effect</strong> You regain HP equal to double the evil creature's level. This is a good, positive, healing effect.<br /></span></p>\n<p><span><strong>Craft Requirements</strong> You are good.</span></p>"
        },
        "equipped": {
            "value": false
        },
        "equippedBulk": {
            "value": ""
        },
        "hardness": {
            "value": 0
        },
        "hp": {
            "value": 0
        },
        "identified": {
            "value": true
        },
        "invested": {
            "value": false
        },
        "level": {
            "value": "11"
        },
        "maxHp": {
            "value": 0
        },
        "negateBulk": {
            "value": "0"
        },
        "preciousMaterial": {
            "value": ""
        },
        "preciousMaterialGrade": {
            "value": ""
        },
        "price": {
            "value": "1,400 gp"
        },
        "quantity": {
            "value": "1"
        },
        "rarity": {
            "value": "common"
        },
        "source": {
            "value": ""
        },
        "stackGroup": {
            "value": ""
        },
        "traits": {
            "custom": "",
            "rarity": {
                "value": "common"
            },
            "usage": {
                "value": "held-in-one-hand"
            },
            "value": [
                "evocation",
                "good",
                "magical"
            ]
        },
        "usage": {
            "value": "held-in-one-hand"
        },
        "weight": {
            "value": "-"
        }
    },
    "flags": {},
    "img": "systems/pf2e/icons/equipment/runes/weapon-property-runes/weapon-property-runes.jpg",
    "name": "Holy",
    "permission": {
        "default": 0
    },
    "type": "equipment"
}
