{
    "_id": "aLA7pikfeNIAAGLw",
    "data": {
        "armor": {
            "label": "AC Bonus",
            "type": "Number",
            "value": 3
        },
        "armorType": {
            "label": "Armor Category",
            "type": "String",
            "value": "medium"
        },
        "brokenThreshold": {
            "value": null
        },
        "bulkCapacity": {
            "value": ""
        },
        "check": {
            "label": "Check Penalty",
            "type": "String",
            "value": "-2"
        },
        "collapsed": {
            "value": false
        },
        "containerId": {
            "value": ""
        },
        "description": {
            "chat": "",
            "label": "Description",
            "type": "String",
            "unidentified": "",
            "value": "<section class=\"content\">\n<p>Made of overlapping, lustrous black scales of standard-grade adamantine, this +2 greater resilient @Compendium[pf2e.equipment-srd.Fortification]{Fortification} adamantine scale mail seems to momentarily thicken at the point of impact when hit.</p>\n<p>Whenever the armor's fortification rune successfully turns a significant foe's critical hit into a normal hit, one of the scales on the armor turns violet. You gain resistance to physical damage equal to the number of violet scales, to a maximum of 8.</p>\n<p>At dawn each day, all the violet scales return to normal.</p>\n<hr /></section>\n<section class=\"content extra\">\n<p><strong>Craft Requirements</strong> The initial raw materials must include 1,600 gp of adamantine.</p>\n</section>"
        },
        "dex": {
            "label": "Dex Modifier Cap",
            "type": "String",
            "value": "2"
        },
        "equipped": {
            "label": "Equipped",
            "type": "Boolean",
            "value": false
        },
        "equippedBulk": {
            "value": "3"
        },
        "group": {
            "label": "Group",
            "type": "String",
            "value": "composite"
        },
        "hardness": {
            "value": null
        },
        "hp": {
            "value": null
        },
        "identified": {
            "value": true
        },
        "invested": {
            "value": false
        },
        "level": {
            "label": "Item Level",
            "type": "Number",
            "value": 17
        },
        "maxHp": {
            "value": null
        },
        "negateBulk": {
            "value": "0"
        },
        "potency": {
            "label": "Armor Potency",
            "type": "String"
        },
        "potencyRune": {
            "value": "2"
        },
        "preciousMaterial": {
            "value": "adamantine"
        },
        "preciousMaterialGrade": {
            "value": "standard"
        },
        "price": {
            "label": "Price",
            "type": "String",
            "value": "12,800 gp"
        },
        "propertyRune1": {
            "value": "fortification"
        },
        "propertyRune2": {
            "value": ""
        },
        "propertyRune3": {
            "value": ""
        },
        "propertyRune4": {
            "value": ""
        },
        "quantity": {
            "label": "Quantity",
            "type": "Number",
            "value": 1
        },
        "rarity": {
            "value": "common"
        },
        "resiliencyRune": {
            "value": "greaterResilient"
        },
        "resilient": {
            "label": "Resilient",
            "type": "String"
        },
        "rules": [],
        "source": {
            "label": "Source",
            "type": "String",
            "value": ""
        },
        "speed": {
            "label": "Speed Penalty",
            "type": "String",
            "value": "-5 ft"
        },
        "stackGroup": {
            "value": ""
        },
        "strength": {
            "label": "Required Strength",
            "type": "String",
            "value": "14"
        },
        "traits": {
            "custom": "",
            "label": "Traits",
            "rarity": {
                "value": "uncommon"
            },
            "type": "String",
            "value": [
                "abjuration",
                "invested",
                "magical"
            ]
        },
        "usage": {
            "value": "wornarmor"
        },
        "weight": {
            "label": "Bulk",
            "type": "Number",
            "value": "4"
        }
    },
    "effects": [],
    "flags": {},
    "img": "systems/pf2e/icons/equipment/armor/specific-magic-armor/impenetrable-scale.jpg",
    "name": "Impenetrable Scale",
    "permission": {
        "default": 0
    },
    "type": "armor"
}
