{
    "_id": "s97FDCHi2UcfzKGn",
    "data": {
        "brokenThreshold": {
            "value": 0
        },
        "bulkCapacity": {
            "value": ""
        },
        "collapsed": {
            "value": false
        },
        "containerId": {
            "value": ""
        },
        "description": {
            "chat": "",
            "unidentified": "",
            "value": "<p>This heavy iron ring is shaped to look like the head of a ram, with curling horns.</p>\n<p><strong>Activate</strong> <span style=\"font-family: 'Pathfinder2eActions'; font-size: 1.8em; display: inline;\">A</span> or more (Interact)</p>\n<p><strong>Frequency</strong> once per minute</p>\n<p><strong>Effect</strong> A ram-shaped blast of force slams into one foe that you can see within 60 feet. The number of actions you spend to Activate this Item (from 1 to 3) determines the intensity of the force.</p>\n<p>The blow deals 2d6 force damage per action spent and pushes the target 5 feet per action spent. The target must attempt a DC 22 Fortitude save.</p>\n<p><strong>Critical Success</strong> The target is unaffected.<br /><strong>Success</strong> The target takes half damage and is pushed half the distance.<br /><strong>Failure</strong> The target takes full damage and is pushed the full distance.<br /><strong>Critical Failure</strong> The target takes double damage and is pushed twice the distance.</p>"
        },
        "equipped": {
            "value": false
        },
        "equippedBulk": {
            "value": ""
        },
        "hardness": {
            "value": 0
        },
        "hp": {
            "value": 0
        },
        "identified": {
            "value": true
        },
        "invested": {
            "value": false
        },
        "level": {
            "value": "6"
        },
        "maxHp": {
            "value": 0
        },
        "negateBulk": {
            "value": "0"
        },
        "preciousMaterial": {
            "value": ""
        },
        "preciousMaterialGrade": {
            "value": ""
        },
        "price": {
            "value": "220 gp"
        },
        "quantity": {
            "value": "1"
        },
        "rarity": {
            "value": "common"
        },
        "rules": [],
        "source": {
            "value": ""
        },
        "stackGroup": {
            "value": ""
        },
        "traits": {
            "custom": "",
            "rarity": {
                "value": "common"
            },
            "usage": {
                "value": "worn"
            },
            "value": [
                "evocation",
                "force",
                "invested",
                "magical"
            ]
        },
        "usage": {
            "value": "held-in-one-hand"
        },
        "weight": {
            "value": "-"
        }
    },
    "effects": [],
    "flags": {},
    "img": "systems/pf2e/icons/equipment/worn-items/other-worn-items/ring-of-the-ram.jpg",
    "name": "Ring of the Ram",
    "permission": {
        "default": 0
    },
    "type": "equipment"
}
