{
    "_id": "XV2EHt1RWHqzPeUT",
    "data": {
        "brokenThreshold": {
            "value": 0
        },
        "bulkCapacity": {
            "value": ""
        },
        "collapsed": {
            "value": false
        },
        "containerId": {
            "value": ""
        },
        "description": {
            "chat": "",
            "unidentified": "",
            "value": "<p>This carefully balanced metal bracket can be attached to the front or top of a shield or tower shield (but not a buckler), allowing you to carry a torch without giving up your shield or holding it in your other hand. While carrying a torch in this way, you must attempt a DC 11 flat check every time you use the Shield Block reaction; on a failure, the torch is extinguished.</p>"
        },
        "equipped": {
            "value": false
        },
        "equippedBulk": {
            "value": ""
        },
        "hardness": {
            "value": 0
        },
        "hp": {
            "value": 0
        },
        "identified": {
            "value": true
        },
        "invested": {
            "value": false
        },
        "level": {
            "value": "0"
        },
        "maxHp": {
            "value": 0
        },
        "negateBulk": {
            "value": "0"
        },
        "preciousMaterial": {
            "value": ""
        },
        "preciousMaterialGrade": {
            "value": ""
        },
        "price": {
            "value": "1 sp"
        },
        "quantity": {
            "value": "1"
        },
        "rarity": {
            "value": "common"
        },
        "rules": [],
        "source": {
            "value": ""
        },
        "stackGroup": {
            "value": ""
        },
        "traits": {
            "rarity": {
                "value": "uncommon"
            },
            "usage": {
                "value": "affixed-to-a-shield"
            },
            "value": []
        },
        "usage": {
            "value": "held-in-one-hand"
        },
        "weight": {
            "value": "-"
        }
    },
    "effects": [],
    "flags": {
        "core": {
            "sourceId": "Item.PMYsDolwbvNEk9uh"
        }
    },
    "img": "systems/pf2e/icons/equipment/adventuring-gear/shield-sconce.jpg",
    "name": "Shield Sconce",
    "permission": {
        "default": 0
    },
    "type": "equipment"
}
