{
    "_id": "zToq18jKonWIp48U",
    "data": {
        "brokenThreshold": {
            "value": 0
        },
        "bulkCapacity": {
            "value": ""
        },
        "collapsed": {
            "value": false
        },
        "containerId": {
            "value": ""
        },
        "description": {
            "chat": "",
            "unidentified": "",
            "value": "<p>This blackened, heavily burned stick smells faintly of bat guano.</p>\n<p><strong>Activate</strong> Cast a Spell</p>\n<p><strong>Frequency</strong> Once per day, plus overcharge</p>\n<p><strong>Effect</strong> You cast @Compendium[pf2e.spells-srd.Fireball]{Fireball} at 5th level.</p>\n<p>Each creature that fails its save takes 2d6 persistent fire damage.</p>\n<p><strong>Craft Requirements</strong> Supply a casting of fireball of the appropriate level.</p>"
        },
        "equipped": {
            "value": false
        },
        "equippedBulk": {
            "value": ""
        },
        "hardness": {
            "value": 0
        },
        "hp": {
            "value": 0
        },
        "identified": {
            "value": true
        },
        "invested": {
            "value": false
        },
        "level": {
            "value": "12"
        },
        "maxHp": {
            "value": 0
        },
        "negateBulk": {
            "value": "0"
        },
        "originalName": "",
        "preciousMaterial": {
            "value": ""
        },
        "preciousMaterialGrade": {
            "value": ""
        },
        "price": {
            "value": "2,000 gp"
        },
        "quantity": {
            "value": "1"
        },
        "rarity": {
            "value": "common"
        },
        "rules": [],
        "source": {
            "value": ""
        },
        "stackGroup": {
            "value": ""
        },
        "traits": {
            "custom": "",
            "rarity": {
                "value": "common"
            },
            "usage": {
                "value": "held-in-one-hand"
            },
            "value": [
                "evocation",
                "fire",
                "magical",
                "wand"
            ]
        },
        "usage": {
            "value": "held-in-one-hand"
        },
        "weight": {
            "value": "L"
        }
    },
    "effects": [],
    "flags": {},
    "img": "systems/pf2e/icons/equipment/wands/specialty-wands/wand-of-smoldering-fireballs.jpg",
    "name": "Wand of Smoldering Fireballs (5th-Level Spell)",
    "permission": {
        "default": 0
    },
    "type": "equipment"
}
