{
    "_id": "aomFSKgGl52z7tdX",
    "description": "Table of 16th-Level Consumables Items",
    "displayRoll": true,
    "flags": {
        "core": {
            "sourceId": "RollTable.QTBoAxL2mGW5x2aY"
        }
    },
    "formula": "1d60",
    "img": "icons/svg/d20-grey.svg",
    "name": "16th-Level Consumables Items",
    "permission": {
        "default": 0
    },
    "replacement": true,
    "results": [
        {
            "_id": "mYq4p5qykRLe1Ok4",
            "collection": "pf2e.equipment-srd",
            "drawn": false,
            "flags": {},
            "img": "systems/pf2e/icons/equipment/alchemical-items/alchemical-elixirs/eagle-eyes-elixir.jpg",
            "range": [
                1,
                6
            ],
            "resultId": "kicNrnZz1KjJYRVI",
            "text": "Eagle Eye Elixir (Major)",
            "type": 2,
            "weight": 6
        },
        {
            "_id": "QN2b9QvvhEhXYHss",
            "collection": "pf2e.equipment-srd",
            "drawn": false,
            "flags": {},
            "img": "systems/pf2e/icons/equipment/alchemical-items/alchemical-elixirs/salamander-elixir.jpg",
            "range": [
                7,
                12
            ],
            "resultId": "XMuLrJYL6fxv4YNA",
            "text": "Salamander Elixir (Greater)",
            "type": 2,
            "weight": 6
        },
        {
            "_id": "k455WZW8SCQLXbsv",
            "collection": "pf2e.equipment-srd",
            "drawn": false,
            "flags": {},
            "img": "systems/pf2e/icons/equipment/alchemical-items/alchemical-elixirs/winter-wolf-elixir.jpg",
            "range": [
                13,
                18
            ],
            "resultId": "aDn5blt2iiYJpzbe",
            "text": "Winter Wolf Elixir (Greater)",
            "type": 2,
            "weight": 6
        },
        {
            "_id": "aPbhuQl16Dn83HR8",
            "collection": "pf2e.equipment-srd",
            "drawn": false,
            "flags": {},
            "img": "systems/pf2e/icons/equipment/alchemical-items/alchemical-poisons/brimstone-fumes.jpg",
            "range": [
                19,
                24
            ],
            "resultId": "9nhvZ7VnDQHuyBdf",
            "text": "Brimstone Fumes",
            "type": 2,
            "weight": 6
        },
        {
            "_id": "oLZsd9xeniDUB97N",
            "collection": "pf2e.equipment-srd",
            "drawn": false,
            "flags": {},
            "img": "systems/pf2e/icons/equipment/alchemical-items/alchemical-poisons/nightmare-vapor.jpg",
            "range": [
                25,
                30
            ],
            "resultId": "X6vNtRjyHIuN7vqj",
            "text": "Nightmare Vapor",
            "type": 2,
            "weight": 6
        },
        {
            "_id": "lLzSpPUauPOj4sfl",
            "collection": "pf2e.equipment-srd",
            "drawn": false,
            "flags": {},
            "img": "systems/pf2e/icons/equipment/weapons/truesight-potion.jpg",
            "range": [
                31,
                36
            ],
            "resultId": "CoMwPsQ8mPj5Evti",
            "text": "Truesight Potion",
            "type": 2,
            "weight": 6
        },
        {
            "_id": "HpyqvpBDM6D2jUC6",
            "collection": "pf2e.equipment-srd",
            "drawn": false,
            "flags": {},
            "img": "systems/pf2e/icons/equipment/snares/hail-of-arrows-snare.jpg",
            "range": [
                37,
                42
            ],
            "resultId": "Odl2SyKw8Zg6ckKb",
            "text": "Hail of Arrows Snare",
            "type": 2,
            "weight": 6
        },
        {
            "_id": "iVRvYJVcwJbGNujk",
            "collection": "pf2e.equipment-srd",
            "drawn": false,
            "flags": {},
            "img": "systems/pf2e/icons/equipment/snares/omnidirectional-spear-snare.jpg",
            "range": [
                43,
                48
            ],
            "resultId": "tnCKwIsRsKj3FtG6",
            "text": "Omnidirectional Spear Snare",
            "type": 2,
            "weight": 6
        },
        {
            "_id": "n93IZ9OXbT0N8exF",
            "collection": "pf2e.equipment-srd",
            "drawn": false,
            "flags": {},
            "img": "systems/pf2e/icons/equipment/consumables/talismans/flame-navette.jpg",
            "range": [
                49,
                54
            ],
            "resultId": "4Pmo9gc81JAOzdke",
            "text": "Flame Navette",
            "type": 2,
            "weight": 6
        },
        {
            "_id": "dfzcLplUcufLhROU",
            "collection": "pf2e.equipment-srd",
            "drawn": false,
            "flags": {},
            "img": "systems/pf2e/icons/equipment/consumables/talismans/ghost-dust.jpg",
            "range": [
                55,
                60
            ],
            "resultId": "dmQAN56aMro0gecx",
            "text": "Ghost Dust",
            "type": 2,
            "weight": 6
        }
    ]
}
