{
    "_id": "QoEkRoteKJwHHVRd",
    "description": "Table of 8th-Level Permanent Items",
    "displayRoll": true,
    "flags": {
        "core": {
            "sourceId": "RollTable.7x6gRClqmMdeHye1"
        }
    },
    "formula": "1d168",
    "img": "icons/svg/d20-grey.svg",
    "name": "8th-Level Permanent Items",
    "permission": {
        "default": 0
    },
    "replacement": true,
    "results": [
        {
            "_id": "mYq4p5qykRLe1Ok4",
            "drawn": false,
            "flags": {},
            "img": "icons/svg/d20-black.svg",
            "range": [
                1,
                6
            ],
            "resultId": "",
            "text": "Magic Armor (+1 Resilient)",
            "type": 0,
            "weight": 6
        },
        {
            "_id": "QN2b9QvvhEhXYHss",
            "collection": "pf2e.equipment-srd",
            "drawn": false,
            "flags": {},
            "img": "systems/pf2e/icons/equipment/worn-items/companion-items/collar-of-inconspicuousness.jpg",
            "range": [
                7,
                12
            ],
            "resultId": "Rsoh0Y3RQD8x8ito",
            "text": "Collar of Inconspicuousness",
            "type": 2,
            "weight": 6
        },
        {
            "_id": "k455WZW8SCQLXbsv",
            "collection": "pf2e.equipment-srd",
            "drawn": false,
            "flags": {},
            "img": "systems/pf2e/icons/equipment/held-items/rod-of-wonder.jpg",
            "range": [
                13,
                12
            ],
            "resultId": "6wVWwpL9pYr3yQtt",
            "text": "Rod of Wonder",
            "type": 2,
            "weight": null
        },
        {
            "_id": "3EqXFbXhBaS3HemC",
            "collection": "pf2e.equipment-srd",
            "drawn": false,
            "flags": {},
            "img": "systems/pf2e/icons/equipment/runes/weapon-property-runes/weapon-property-runes.jpg",
            "range": [
                13,
                18
            ],
            "resultId": "Wm0X7Pfd1bfocPSv",
            "text": "Corrosive",
            "type": 2,
            "weight": 6
        },
        {
            "_id": "oLZsd9xeniDUB97N",
            "collection": "pf2e.equipment-srd",
            "drawn": false,
            "flags": {},
            "img": "systems/pf2e/icons/equipment/runes/armor-property-runes/armor-property-runes.jpg",
            "range": [
                19,
                24
            ],
            "resultId": "Lw3B9DpnyrpXD9Di",
            "text": "Energy-Resistant",
            "type": 2,
            "weight": 6
        },
        {
            "_id": "zz0eL7k3QNTKNXc3",
            "collection": "pf2e.equipment-srd",
            "drawn": false,
            "flags": {},
            "img": "systems/pf2e/icons/equipment/runes/weapon-property-runes/weapon-property-runes.jpg",
            "range": [
                25,
                30
            ],
            "resultId": "XszNvxnymWYRaoTp",
            "text": "Flaming",
            "type": 2,
            "weight": 6
        },
        {
            "_id": "lLzSpPUauPOj4sfl",
            "collection": "pf2e.equipment-srd",
            "drawn": false,
            "flags": {},
            "img": "systems/pf2e/icons/equipment/runes/weapon-property-runes/weapon-property-runes.jpg",
            "range": [
                31,
                36
            ],
            "resultId": "M5M1WJ5KzbYfRGsY",
            "text": "Frost",
            "type": 2,
            "weight": 6
        },
        {
            "_id": "HpyqvpBDM6D2jUC6",
            "collection": "pf2e.equipment-srd",
            "drawn": false,
            "flags": {},
            "img": "systems/pf2e/icons/equipment/runes/armor-property-runes/armor-property-runes.jpg",
            "range": [
                37,
                42
            ],
            "resultId": "VDudQ4x2ozosAbTb",
            "text": "Invisibility",
            "type": 2,
            "weight": 6
        },
        {
            "_id": "bqsJMu7IB225fTYz",
            "collection": "pf2e.equipment-srd",
            "drawn": false,
            "flags": {},
            "img": "systems/pf2e/icons/equipment/runes/fundamental-armor-runes/armor-potency.jpg",
            "range": [
                43,
                48
            ],
            "resultId": "eSjQgsl3pYkirOwk",
            "text": "Resilient",
            "type": 2,
            "weight": 6
        },
        {
            "_id": "xkxbqKf3zQN0HjG2",
            "collection": "pf2e.equipment-srd",
            "drawn": false,
            "flags": {},
            "img": "systems/pf2e/icons/equipment/runes/weapon-property-runes/weapon-property-runes.jpg",
            "range": [
                49,
                54
            ],
            "resultId": "NVst7e69agGG9Qwd",
            "text": "Shock",
            "type": 2,
            "weight": 6
        },
        {
            "_id": "kQTbzpAKyDIdb9PY",
            "collection": "pf2e.equipment-srd",
            "drawn": false,
            "flags": {},
            "img": "systems/pf2e/icons/equipment/runes/armor-property-runes/armor-property-runes.jpg",
            "range": [
                55,
                60
            ],
            "resultId": "LiJMupjynmkM5Mld",
            "text": "Slick (Greater)",
            "type": 2,
            "weight": 6
        },
        {
            "_id": "11E6i8082Hr9VbAI",
            "collection": "pf2e.equipment-srd",
            "drawn": false,
            "flags": {},
            "img": "systems/pf2e/icons/equipment/runes/weapon-property-runes/weapon-property-runes.jpg",
            "range": [
                61,
                66
            ],
            "resultId": "dTxbaa7HSiJbIuNN",
            "text": "Thundering",
            "type": 2,
            "weight": 6
        },
        {
            "_id": "vQq7Hy7Dx1a8GCHZ",
            "collection": "pf2e.equipment-srd",
            "drawn": false,
            "flags": {},
            "img": "systems/pf2e/icons/equipment/shields/precious-material-shields/adamantite-buckler.jpg",
            "range": [
                67,
                72
            ],
            "resultId": "4aVkppixLHPg940o",
            "text": "Adamantine Buckler (Standard-Grade)",
            "type": 2,
            "weight": 6
        },
        {
            "_id": "dwXrm0DZwZ0Vtpyl",
            "collection": "pf2e.equipment-srd",
            "drawn": false,
            "flags": {},
            "img": "systems/pf2e/icons/equipment/shields/precious-material-shields/adamantite-shield.jpg",
            "range": [
                73,
                78
            ],
            "resultId": "2gMlhHlkQp3DuWw5",
            "text": "Adamantine Shield (Standard-Grade)",
            "type": 2,
            "weight": 6
        },
        {
            "_id": "ViMk7CeQzvGeYUrC",
            "collection": "pf2e.equipment-srd",
            "drawn": false,
            "flags": {},
            "img": "systems/pf2e/icons/equipment/shields/precious-material-shields/darkwood-buckler.jpg",
            "range": [
                79,
                84
            ],
            "resultId": "BUHV5rev5HVgCrUB",
            "text": "Darkwood Buckler (Standard-Grade)",
            "type": 2,
            "weight": 6
        },
        {
            "_id": "rj2RuyHe7q9qcZ2d",
            "collection": "pf2e.equipment-srd",
            "drawn": false,
            "flags": {},
            "img": "systems/pf2e/icons/equipment/shields/precious-material-shields/darkwood-shield.jpg",
            "range": [
                85,
                90
            ],
            "resultId": "UdvSJPCtBr2Y1e22",
            "text": "Darkwood Shield (Standard-Grade)",
            "type": 2,
            "weight": 6
        },
        {
            "_id": "o3gZ97kIi4lo11BY",
            "collection": "pf2e.equipment-srd",
            "drawn": false,
            "flags": {},
            "img": "systems/pf2e/icons/equipment/shields/precious-material-shields/darkwood-tower-shield.jpg",
            "range": [
                91,
                96
            ],
            "resultId": "Snu8yjMrUi3ockyA",
            "text": "Darkwood Tower Shield (Standard-Grade)",
            "type": 2,
            "weight": 6
        },
        {
            "_id": "OtH5vWwuqo4ICMuF",
            "collection": "pf2e.equipment-srd",
            "drawn": false,
            "flags": {},
            "img": "systems/pf2e/icons/equipment/shields/precious-material-shields/dragonhide-buckler.jpg",
            "range": [
                97,
                102
            ],
            "resultId": "vfzzrp0tKXznWnhY",
            "text": "Dragonhide Buckler (Standard-Grade)",
            "type": 2,
            "weight": 6
        },
        {
            "_id": "TbqN7piUhgo0OfAf",
            "collection": "pf2e.equipment-srd",
            "drawn": false,
            "flags": {},
            "img": "systems/pf2e/icons/equipment/shields/precious-material-shields/dragonhide-shield.jpg",
            "range": [
                103,
                108
            ],
            "resultId": "daX1jX7XYo3mWZmP",
            "text": "Dragonhide Shield (Standard-Grade)",
            "type": 2,
            "weight": 6
        },
        {
            "_id": "l9CD8GKGvhWX8hAA",
            "collection": "pf2e.equipment-srd",
            "drawn": false,
            "flags": {},
            "img": "systems/pf2e/icons/equipment/shields/precious-material-shields/mithral-buckler.jpg",
            "range": [
                109,
                114
            ],
            "resultId": "CF9BCVE0ppxMmULb",
            "text": "Mithral Buckler (Standard-Grade)",
            "type": 2,
            "weight": 6
        },
        {
            "_id": "t5t1wLQE2o2FC0iI",
            "collection": "pf2e.equipment-srd",
            "drawn": false,
            "flags": {},
            "img": "systems/pf2e/icons/equipment/shields/precious-material-shields/mithral-shield.jpg",
            "range": [
                115,
                120
            ],
            "resultId": "ETHbpwjh8aLGrXi0",
            "text": "Mithral Shield (Standard-Grade)",
            "type": 2,
            "weight": 6
        },
        {
            "_id": "SaGLwztjSNglsrzf",
            "collection": "pf2e.equipment-srd",
            "drawn": false,
            "flags": {},
            "img": "systems/pf2e/icons/equipment/staves/animal-staff.jpg",
            "range": [
                121,
                126
            ],
            "resultId": "bT9azgpc96DNbitA",
            "text": "Animal Staff (Greater)",
            "type": 2,
            "weight": 6
        },
        {
            "_id": "vHNOIhldCiAlVI37",
            "collection": "pf2e.equipment-srd",
            "drawn": false,
            "flags": {},
            "img": "systems/pf2e/icons/equipment/staves/mentalist-staff.jpg",
            "range": [
                127,
                132
            ],
            "resultId": "0RCC0fOg1Lp7f79I",
            "text": "Mentalist's Staff (Greater)",
            "type": 2,
            "weight": 6
        },
        {
            "_id": "wDGaxAN4F6RLlPZV",
            "collection": "pf2e.equipment-srd",
            "drawn": false,
            "flags": {},
            "img": "systems/pf2e/icons/equipment/staves/staff-of-fire.jpg",
            "range": [
                133,
                138
            ],
            "resultId": "KcjaeMgrsBGgwUWL",
            "text": "Staff of Fire (Greater)",
            "type": 2,
            "weight": 6
        },
        {
            "_id": "S0kG1NmHVtkY2ZNf",
            "collection": "pf2e.equipment-srd",
            "drawn": false,
            "flags": {},
            "img": "systems/pf2e/icons/equipment/staves/staff-of-healing.jpg",
            "range": [
                139,
                144
            ],
            "resultId": "XSwEE8wjHr6UXzpw",
            "text": "Staff of Healing (Greater)",
            "type": 2,
            "weight": 6
        },
        {
            "_id": "ND9f91U4mIQQpsxt",
            "collection": "pf2e.equipment-srd",
            "drawn": false,
            "flags": {},
            "img": "systems/pf2e/icons/equipment/staves/staff-of-illumination.jpg",
            "range": [
                145,
                150
            ],
            "resultId": "8No84rsBOCVCkXJK",
            "text": "Staff of Illumination",
            "type": 2,
            "weight": 6
        },
        {
            "_id": "EkwMh4K3qpHW7heM",
            "collection": "pf2e.equipment-srd",
            "drawn": false,
            "flags": {},
            "img": "systems/pf2e/icons/equipment/wands/specialty-wands/wand-of-smoldering-fireballs.jpg",
            "range": [
                151,
                156
            ],
            "resultId": "c2Oa9UbhjwAsZaPp",
            "text": "Wand of Smoldering Fireballs (3rd-Level Spell)",
            "type": 2,
            "weight": 6
        },
        {
            "_id": "51ULgg4Z2gGAZbMm",
            "collection": "pf2e.equipment-srd",
            "drawn": false,
            "flags": {},
            "img": "systems/pf2e/icons/equipment/wands/specialty-wands/wand-of-widening.jpg",
            "range": [
                157,
                162
            ],
            "resultId": "TJaumkbZy11sIAgR",
            "text": "Wand of Widening (3rd-Level Spell)",
            "type": 2,
            "weight": 6
        },
        {
            "_id": "WGS4NVKgvBlbRbTe",
            "collection": "pf2e.equipment-srd",
            "drawn": false,
            "flags": {},
            "img": "systems/pf2e/icons/equipment/worn-items/other-worn-items/bracers-of-armor.jpg",
            "range": [
                163,
                168
            ],
            "resultId": "02q8s6sSicMkhs1l",
            "text": "Bracers of Armor I",
            "type": 2,
            "weight": 6
        }
    ]
}
