{
    "_id": "GkmbTGfg8KcgynOA",
    "data": {
        "actionCategory": {
            "value": ""
        },
        "actionType": {
            "label": "Action Type",
            "type": "String",
            "value": "action"
        },
        "actions": {
            "label": "Number of Actions",
            "type": "String",
            "value": "1"
        },
        "description": {
            "chat": "",
            "label": "Description",
            "type": "String",
            "unidentified": "",
            "value": "<p>With a gesture, a trick, or some distracting words, you can create a diversion that draws creatures' attention elsewhere. If you use a gesture or trick, this action gains the manipulate trait. If you use distracting words, it gains the auditory and linguistic traits.</p>\n<p>Attempt a single Deception check and compare it to the Perception DCs of the creatures whose attention you're trying to divert. Whether or not you succeed, creatures you attempt to divert gain a +4 circumstance bonus to their Perception DCs against your attempts to Create a Diversion for 1 minute.</p>\n<hr />\n<p><strong>Success</strong> You become @Compendium[pf2e.conditionitems.Hidden]{Hidden} to each creature whose Perception DC is less than or equal to your result. (The hidden condition allows you to @Compendium[pf2e.actionspf2e.Sneak]{Sneak} away, as described on page 252.) This lasts until the end of your turn or until you do anything except Step or use the @Compendium[pf2e.actionspf2e.Hide]{Hide} or the Sneak action of the Stealth skill (pages 251 and 252). If you Strike a creature, the creature remains @Compendium[pf2e.conditionitems.Flat-Footed]{Flat-Footed} against that attack, and you then become @Compendium[pf2e.conditionitems.Observed]{Observed}. If you do anything else, you become observed just before you act unless the GM determines otherwise.</p>\n<p><strong>Failure</strong> You don't divert the attention of any creatures whose Perception DC exceeds your result, and those creatures are aware you were trying to trick them.</p>"
        },
        "rarity": {
            "value": "common"
        },
        "requirements": {
            "label": "Requirements",
            "type": "String",
            "value": ""
        },
        "rules": [],
        "skill_requirement": {
            "label": "Skill Req.",
            "skill": {
                "rank": "0",
                "skill": "deception",
                "type": "Number"
            },
            "type": "String"
        },
        "skill_requirements": {
            "rank": "",
            "skill": ""
        },
        "source": {
            "label": "Source",
            "type": "String",
            "value": ""
        },
        "traits": {
            "custom": "",
            "label": "Traits",
            "type": "String",
            "value": [
                "skill",
                "mental"
            ]
        },
        "trigger": {
            "label": "Trigger",
            "type": "String",
            "value": ""
        },
        "weapon": {
            "label": "Associated Weapon",
            "type": "String",
            "value": ""
        }
    },
    "effects": [],
    "flags": {},
    "img": "systems/pf2e/icons/actions/OneAction.png",
    "name": "Create a Diversion",
    "permission": {
        "default": 0
    },
    "type": "action"
}
