{
    "_id": "lmAuoHPxzQdaSUmN",
    "data": {
        "actionCategory": {
            "value": ""
        },
        "actionType": {
            "value": "reaction"
        },
        "actions": {
            "value": null
        },
        "description": {
            "chat": "",
            "unidentified": "",
            "value": "<p><strong>Requirements</strong> You aren't @Compendium[pf2e.conditionitems.Encumbered]{Encumbered} or overburdened.<br /><strong>Trigger</strong> You succeed or critically succeed at a Reflex saving throw.<br /></p>\n<hr />\n<p>You Step up to 10 feet.</p>"
        },
        "featType": {
            "value": "archetype"
        },
        "level": {
            "value": "12"
        },
        "prerequisites": {
            "value": [
                "Provocator Dedication"
            ]
        },
        "rarity": {
            "value": "common"
        },
        "rules": [],
        "source": {
            "value": ""
        },
        "traits": {
            "custom": "",
            "rarity": {
                "value": "common"
            },
            "value": [
                "archetype"
            ]
        }
    },
    "effects": [],
    "flags": {
        "core": {
            "sourceId": "Item.Vvemd5i37B5tigLZ"
        }
    },
    "img": "systems/pf2e/icons/features/feats/feats.jpg",
    "name": "Cartwheel Dodge",
    "permission": {
        "default": 0
    },
    "type": "feat"
}
