{
    "_id": "SYVM6Z3sS50e5Vbd",
    "data": {
        "actionCategory": {
            "value": ""
        },
        "actionType": {
            "value": "passive"
        },
        "actions": {
            "value": null
        },
        "description": {
            "chat": "",
            "unidentified": "",
            "value": "<p><strong>Access</strong>Help either the Washboard Dogs or the Diobel Sweepers destroy their rival.<br /></p>\n<hr />\n<p>When you succeed or critically succeed at a Deception check to @Compendium[pf2e.actionspf2e.Feint]{Feint} an opponent, that target can't flank with their allies until the beginning of your next turn.</p>"
        },
        "featType": {
            "value": "class"
        },
        "level": {
            "value": "10"
        },
        "prerequisites": {
            "value": null
        },
        "rarity": {
            "value": "common"
        },
        "rules": [],
        "source": {
            "value": ""
        },
        "traits": {
            "custom": "",
            "rarity": {
                "value": "uncommon"
            },
            "value": [
                "rogue"
            ]
        }
    },
    "effects": [],
    "flags": {
        "core": {
            "sourceId": "Item.PiyQDObmTbFSzQFZ"
        }
    },
    "img": "systems/pf2e/icons/features/feats/feats.jpg",
    "name": "Deny Support",
    "permission": {
        "default": 0
    },
    "type": "feat"
}
