{
    "_id": "IdKfWg48qMieuzl7",
    "data": {
        "actionCategory": {
            "value": ""
        },
        "actionType": {
            "value": "action"
        },
        "actions": {
            "value": "1"
        },
        "description": {
            "chat": "",
            "unidentified": "",
            "value": "<p>You Strike a target within reach and then Step to any other open space adjacent to that target. Your target is then @Compendium[pf2e.conditionitems.Flat-Footed]{Flat-Footed} against your next Strike this turn.</p>"
        },
        "featType": {
            "value": "archetype"
        },
        "level": {
            "value": "14"
        },
        "prerequisites": {
            "value": [
                "Provocator Dedication"
            ]
        },
        "rarity": {
            "value": "common"
        },
        "rules": [],
        "source": {
            "value": ""
        },
        "traits": {
            "custom": "",
            "rarity": {
                "value": "common"
            },
            "value": [
                "archetype"
            ]
        }
    },
    "effects": [],
    "flags": {
        "core": {
            "sourceId": "Item.dLIt1RRYMSXZT3lD"
        }
    },
    "img": "systems/pf2e/icons/features/feats/feats.jpg",
    "name": "Murderer's Circle",
    "permission": {
        "default": 0
    },
    "type": "feat"
}
