{
    "_id": "yWASKzumwmv4TgSe",
    "data": {
        "actionCategory": {
            "value": ""
        },
        "actionType": {
            "value": "passive"
        },
        "actions": {
            "value": ""
        },
        "containerId": {
            "value": ""
        },
        "description": {
            "chat": "",
            "unidentified": "",
            "value": "<p><strong>Minor Boon (Single Use)</strong>: Calistria smiles on the riskiest deceptions. Once, when you roll a failure on a check to @Compendium[pf2e.actionspf2e.Lie]{Lie}, you get a critical success instead. Calistria typically grants this boon for an extremely consequential lie.</p>"
        },
        "featType": {
            "value": "deityboon"
        },
        "level": {
            "value": "0"
        },
        "prerequisites": {
            "value": ""
        },
        "rarity": {
            "value": "common"
        },
        "source": {
            "value": ""
        },
        "traits": {
            "custom": "",
            "rarity": {
                "value": "common"
            },
            "selected": {},
            "value": []
        }
    },
    "flags": {},
    "img": "systems/pf2e/icons/deity/Calistria.png",
    "name": "Calistra - Minor Boon",
    "permission": {
        "default": 0
    },
    "type": "feat"
}
