{
    "_id": "dL6r0VfFIWlAazDW",
    "data": {
        "actionCategory": {
            "value": ""
        },
        "actionType": {
            "value": "passive"
        },
        "actions": {
            "value": ""
        },
        "containerId": {
            "value": ""
        },
        "description": {
            "chat": "",
            "unidentified": "",
            "value": "<p><strong>Major Boon</strong>: You are a voice of peace and rehabilitation.</p>\n<p>When you roll a success at a check to @Compendium[pf2e.actionspf2e.Request]{Request} something, you get a critical success instead.</p>\n<p>In addition, all creatures other than fiends, undead, and mindless creatures allow you one chance to speak your piece and make requests before entering combat. If you or an ally ever use the time from the request to gain an advantage in an ensuing combat (for example, by casting preparatory spells, positioning for combat, or waiting out your opponent's preparatory spells), Sarenrae immediately revokes this boon, or possibly curses your ally.</p>"
        },
        "featType": {
            "value": "deityboon"
        },
        "level": {
            "value": "0"
        },
        "prerequisites": {
            "value": ""
        },
        "rarity": {
            "value": "common"
        },
        "source": {
            "value": ""
        },
        "traits": {
            "custom": "",
            "rarity": {
                "value": "common"
            },
            "selected": {},
            "value": []
        }
    },
    "flags": {},
    "img": "systems/pf2e/icons/deity/Sarenrae.png",
    "name": "Saranrae - Major Boon",
    "permission": {
        "default": 0
    },
    "type": "feat"
}
