{
    "_id": "a3hqeAXpmMZgMWuB",
    "data": {
        "description": {
            "chat": "",
            "unidentified": "",
            "value": "<p>Granted by @Compendium[pf2e.equipment-srd.Darkvision Elixir (Lesser)]{Darkvision Elixir}</p>\n<p>Implemented effects:</p>\n<ul>\n<li>Gain Darkvision</li>\n</ul>"
        },
        "level": {
            "value": 1
        },
        "rarity": {
            "value": "common"
        },
        "rules": [
            {
                "key": "PF2E.RuleElement.Sense",
                "label": "Darkvision",
                "selector": "darkvision"
            },
            {
                "key": "PF2E.RuleElement.TokenEffectIcon"
            }
        ],
        "source": {
            "value": ""
        },
        "traits": {
            "value": []
        }
    },
    "effects": [],
    "flags": {
        "core": {
            "sourceId": "Item.OGh2yKOdg73P2Mse"
        }
    },
    "img": "systems/pf2e/icons/equipment/alchemical-items/alchemical-elixirs/darkvision-elixir.jpg",
    "name": "Effect: Darkvision Elixir",
    "permission": {
        "default": 0
    },
    "type": "effect"
}
