{
    "_id": "8ersuvNJXX00XaIQ",
    "data": {
        "description": {
            "chat": "",
            "unidentified": "",
            "value": "<p>Granted by&nbsp;@Compendium[pf2e.gmg-srd.Euryale (curse)]{Euryale (curse)}&nbsp;from the&nbsp;@Compendium[pf2e.equipment-srd.Deck of Many Things]{Deck of Many Things}</p>\n<p>Automatically applied effects:</p>\n<ul>\n<li>&nbsp;-1 penalty to all saving throws.</li>\n</ul>\n<p>&nbsp;</p>"
        },
        "duration": {
            "expiry": "turn-start",
            "sustained": false,
            "unit": "unlimited",
            "value": -1
        },
        "level": {
            "value": 0
        },
        "rarity": {
            "value": "common"
        },
        "rules": [
            {
                "key": "PF2E.RuleElement.FlatModifier",
                "label": "Euryale Curse",
                "selector": "saving-throw",
                "type": "untyped",
                "value": -1
            },
            {
                "key": "PF2E.RuleElement.TokenEffectIcon"
            }
        ],
        "source": {
            "value": ""
        },
        "start": {
            "initiative": null,
            "value": 0
        },
        "traits": {
            "value": []
        }
    },
    "effects": [],
    "flags": {
        "core": {
            "sourceId": "Item.5EyhEO24vgV7ostd"
        }
    },
    "img": "systems/pf2e/icons/equipment/cursed-items/euryale-curse-card.jpg",
    "name": "Effect: Euryale (Curse) Card",
    "permission": {
        "default": 0
    },
    "type": "effect"
}
