{
    "_id": "0nIOGpHQNHsKSFKT",
    "data": {
        "actionCategory": {
            "value": ""
        },
        "actionType": {
            "value": "passive"
        },
        "actions": {
            "value": ""
        },
        "description": {
            "chat": "",
            "unidentified": "",
            "value": "<p>When you focus your attention on a single foe, you become unstoppable in your pursuit. You gain the Hunt Prey action.</p>"
        },
        "featType": {
            "value": "classfeature"
        },
        "level": {
            "value": "1"
        },
        "prerequisites": {
            "value": ""
        },
        "rarity": {
            "value": "common"
        },
        "source": {
            "value": ""
        },
        "traits": {
            "custom": "",
            "value": [
                "ranger"
            ]
        }
    },
    "flags": {},
    "img": "systems/pf2e/icons/features/classes/hunt-prey.jpg",
    "name": "Hunt Prey",
    "permission": {
        "default": 0
    },
    "type": "feat"
}
