{
    "_id": "dAA1MElXsUjQ5fzw",
    "data": {
        "actionCategory": {
            "value": ""
        },
        "actionType": {
            "value": "passive"
        },
        "actions": {
            "value": ""
        },
        "description": {
            "chat": "",
            "unidentified": "",
            "value": "<p>Your body is accustomed to physical hardship and resistant to ailments. Your proficiency rank for Fortitude saves increases to master. When you roll a success on a Fortitude save, you get a critical success instead.</p>"
        },
        "featType": {
            "value": "classfeature"
        },
        "level": {
            "value": 9
        },
        "prerequisites": {
            "value": ""
        },
        "rarity": {
            "value": "common"
        },
        "rules": [
            {
                "key": "PF2E.RuleElement.Note",
                "selector": "fortitude",
                "text": "<p class='compact-text'><strong>{item|name}</strong> When you roll a success on a Fortitude save, you get a critical success instead.</p>"
            }
        ],
        "source": {
            "value": ""
        },
        "traits": {
            "custom": "",
            "rarity": {
                "value": "common"
            },
            "value": [
                "champion"
            ]
        }
    },
    "effects": [],
    "flags": {},
    "img": "systems/pf2e/icons/features/classes/juggerenaut.jpg",
    "name": "Juggernaut (Champion)",
    "permission": {
        "default": 0
    },
    "type": "feat"
}
