{
    "_id": "MLn6UbZsU4PphXLE",
    "data": {
        "actionCategory": {
            "value": ""
        },
        "actionType": {
            "value": "passive"
        },
        "actions": {
            "value": ""
        },
        "containerId": {
            "value": ""
        },
        "description": {
            "chat": "",
            "unidentified": "",
            "value": "<p><strong>[Generic][Limited Use][Downtime]</strong> □□</p>\n<p><strong>Effect</strong>: Your forays into the ancient alchemical testing site of the Jistka Imperium has left you with knowledge and materials for a few handy tricks.</p>\n<p>Whenever you Craft an item with the alchemical trait during Downtime, after rolling, you can check a box that precedes this boon to increase your degree of success by one (from critical failure to failure, from failure to success, or from success to critical success).</p>"
        },
        "featType": {
            "value": "pfsboon"
        },
        "level": {
            "value": "0"
        },
        "prerequisites": {
            "value": ""
        },
        "rarity": {
            "value": "common"
        },
        "source": {
            "value": ""
        },
        "traits": {
            "custom": "",
            "rarity": {
                "value": "common"
            },
            "selected": {},
            "value": []
        }
    },
    "flags": {},
    "img": "systems/pf2e/icons/default-icons/mystery-man.png",
    "name": "S1-Q06 - Secrets of the Jistkan Alchemists",
    "permission": {
        "default": 0
    },
    "type": "feat"
}
