{
    "_id": "BzBFDaNj51PP97RZ",
    "data": {
        "abilities": {
            "cha": {
                "min": 3,
                "mod": 6,
                "value": 22
            },
            "con": {
                "min": 3,
                "mod": 6,
                "value": 22
            },
            "dex": {
                "min": 3,
                "mod": 4,
                "value": 18
            },
            "int": {
                "min": 3,
                "mod": 7,
                "value": 24
            },
            "str": {
                "min": 3,
                "mod": "+8",
                "value": 26
            },
            "wis": {
                "min": 3,
                "mod": 6,
                "value": 22
            }
        },
        "attributes": {
            "ac": {
                "check": 0,
                "details": "",
                "dex": 0,
                "item": 0,
                "min": 0,
                "value": "43"
            },
            "allSaves": {
                "value": "+1 status to all saves vs. magic"
            },
            "ancestryhp": 0,
            "bonusEncumbranceBulk": 0,
            "bonusLimitBulk": 0,
            "classDC": {
                "ability": "str",
                "breakdown": "",
                "item": 0,
                "rank": 0,
                "value": 0
            },
            "classhp": 0,
            "flatbonushp": 0,
            "flatbonussp": 0,
            "hp": {
                "details": "",
                "max": "360",
                "min": 0,
                "temp": 0,
                "tempmax": 0,
                "value": "360"
            },
            "init": {
                "bonus": 0,
                "value": 0
            },
            "initiative": {
                "ability": "",
                "circumstance": 0,
                "status": 0
            },
            "levelbonushp": 0,
            "levelbonussp": 0,
            "perception": {
                "ability": "wis",
                "breakdown": "",
                "item": 0,
                "rank": 0,
                "value": 32
            },
            "resolve": {
                "value": 0
            },
            "shield": {
                "ac": 0,
                "brokenThreshold": 0,
                "hardness": 0,
                "max": 0,
                "min": 0,
                "value": 0
            },
            "sp": {
                "details": "",
                "max": 0,
                "min": 0,
                "value": 0
            },
            "speed": {
                "otherSpeeds": [
                    {
                        "type": "Fly",
                        "value": "200 feet"
                    },
                    {
                        "type": "Swim",
                        "value": "60 feet"
                    }
                ],
                "special": "",
                "value": "60 feet"
            }
        },
        "currency": {
            "cp": {
                "value": 0
            },
            "gp": {
                "value": 0
            },
            "pp": {
                "value": 0
            },
            "sp": {
                "value": 0
            }
        },
        "details": {
            "alignment": {
                "value": "LG"
            },
            "ancestry": {
                "value": "Dragon, Metallic"
            },
            "biography": {
                "public": "",
                "value": ""
            },
            "class": {
                "value": ""
            },
            "creatureType": "Dragon",
            "deity": {
                "image": "systems/pf2e/assets/sheet/deity.png",
                "value": ""
            },
            "flavorText": "Bronze dragons are among the most common of metallic dragons and the most likely to ally with mortals on worthy quests. However, they are naturally scholarly creatures who would rather remain in their lairs studying esoteric lore than go off on a wild adventure. These aloof and stoic dragons also act as preservationists, guarding storehouses of ancient lore from destruction or perversion. Bronze dragons are principled and protective, but while their silver cousins are quick to crusade for justice, bronze dragons prefer to find an important location worthy of their protection and guard it against any attack or unwelcome intrusion.<br /><br /> Bronze dragons' mastery over water and affinity for electricity means they are a boon to sailors caught in thunderstorms. A bronze dragon's enemies quickly discover neither cloudy sky nor turbulent sea provides shelter from their wrath. Bronze dragons lair along shorelines, often in partially submerged sea caves.<br /><br /> While all dragons keep hoards of treasure, the hoard of a bronze dragon more resembles a vast library-with the shelves kept carefully above the waterline, of course. In addition to their collections of esoteric lore, bronze dragons keep treasures associated with the sea, such as beautiful scrimshaw, flawless pearls, and equipment inlaid with mother-of-pearl and abalone shell.<br /><br />",
            "flavourText": "",
            "heritage": {
                "value": ""
            },
            "keyability": {
                "value": "str"
            },
            "level": {
                "min": 1,
                "value": "18"
            },
            "nethysUrl": "https://2e.aonprd.com/Monsters.aspx?ID=147",
            "recallKnowledgeText": "Recall Knowledge : DC 40",
            "sidebarText": "<h3 class=\"title\">Bronze Dragon Spellcasters</h3>Bronze dragon spellcasters tend to cast the following spells.<br /><br /><b>Young Bronze Dragon</b><br /><b>Arcane Prepared Spells</b> DC 28, attack +21; <b>4th</b> @Compendium[pf2e.spells-srd.Dimension Door]{Dimension Door}, <a style=\"text-decoration:underline\" href=\"Spells.aspx?ID=290\"><i>solid fog</i></a>; <b>3rd</b> <a style=\"text-decoration:underline\" href=\"Spells.aspx?ID=78\"><i>dispel magic</i></a>, <a style=\"text-decoration:underline\" href=\"Spells.aspx?ID=194\"><i>mind reading</i></a>, <a style=\"text-decoration:underline\" href=\"Spells.aspx?ID=289\"><i>slow</i></a>; <b>2nd</b> <a style=\"text-decoration:underline\" href=\"Spells.aspx?ID=46\"><i>comprehend language</i></a>, <a style=\"text-decoration:underline\" href=\"Spells.aspx?ID=197\"><i>mirror image</i></a>, <a style=\"text-decoration:underline\" href=\"Spells.aspx?ID=256\"><i>resist energy</i></a>; <b>1st</b> <a style=\"text-decoration:underline\" href=\"Spells.aspx?ID=7\"><i>alarm</i></a>, <a style=\"text-decoration:underline\" href=\"Spells.aspx?ID=154\"><i>hydraulic push</i></a>, <a style=\"text-decoration:underline\" href=\"Spells.aspx?ID=345\"><i>true strike</i></a>; <b>Cantrips </b> @Compendium[pf2e.spells-srd.Detect Magic]{Detect Magic}</a>, <a style=\"text-decoration:underline\" href=\"Spells.aspx?ID=171\"><i>light</i></a>, <a style=\"text-decoration:underline\" href=\"Spells.aspx?ID=190\"><i>message</i></a>, <a style=\"text-decoration:underline\" href=\"Spells.aspx?ID=246\"><i>read aura</i></a>, <a style=\"text-decoration:underline\" href=\"Spells.aspx?ID=280\"><i>shield</i></a><br /><br /><b>Adult Bronze Dragon</b><br /><b>Arcane Prepared Spells</b> DC 33, attack +27; As young bronze dragon, plus <b>6th</b> <a style=\"text-decoration:underline\" href=\"Spells.aspx?ID=199\"><i>mislead</i></a>, @Compendium[pf2e.spells-srd.True Seeing]{True Seeing}; <b>5th</b> <a style=\"text-decoration:underline\" href=\"Spells.aspx?ID=51\"><i>control water</i></a>, <a style=\"text-decoration:underline\" href=\"Spells.aspx?ID=161\"><i>illusory scene</i></a>, @Compendium[pf2e.spells-srd.Tongues]{Tongues}; <b>4th</b> @Compendium[pf2e.spells-srd.Suggestion]{Suggestion}; <b>Cantrips </b> @Compendium[pf2e.spells-srd.Detect Magic]{Detect Magic}</a>, <a style=\"text-decoration:underline\" href=\"Spells.aspx?ID=171\"><i>light</i></a>, <a style=\"text-decoration:underline\" href=\"Spells.aspx?ID=190\"><i>message</i></a>, <a style=\"text-decoration:underline\" href=\"Spells.aspx?ID=246\"><i>read aura</i></a>, <a style=\"text-decoration:underline\" href=\"Spells.aspx?ID=280\"><i>shield</i></a><br /><br /><b>Ancient Bronze Dragon</b><br /><b>Arcane Prepared Spells</b> DC 40, attack +35; As adult bronze dragon, plus <b>8th</b> <a style=\"text-decoration:underline\" href=\"Spells.aspx?ID=242\"><i>disappearance</i></a>, <a style=\"text-decoration:underline\" href=\"Spells.aspx?ID=192\"><i>mind blank</i></a>, @Compendium[pf2e.spells-srd.Polar Ray]{Polar Ray}; <b>7th</b> <a style=\"text-decoration:underline\" href=\"Spells.aspx?ID=233\"><i>prismatic spray</i></a>, @Compendium[pf2e.spells-srd.Spell Turning]{Spell Turning}, @Compendium[pf2e.spells-srd.Suggestion]{Suggestion}; <b>6th</b> <a style=\"text-decoration:underline\" href=\"Spells.aspx?ID=338\"><i>teleport</i></a>; <b>Cantrips </b> @Compendium[pf2e.spells-srd.Detect Magic]{Detect Magic}</a>, <a style=\"text-decoration:underline\" href=\"Spells.aspx?ID=171\"><i>light</i></a>, <a style=\"text-decoration:underline\" href=\"Spells.aspx?ID=190\"><i>message</i></a>, <a style=\"text-decoration:underline\" href=\"Spells.aspx?ID=246\"><i>read aura</i></a>, <a style=\"text-decoration:underline\" href=\"Spells.aspx?ID=280\"><i>shield</i></a>",
            "source": {
                "value": "Bestiary pg. 120"
            }
        },
        "martial": {
            "advanced": {
                "breakdown": "",
                "rank": 0,
                "value": 0
            },
            "heavy": {
                "breakdown": "",
                "rank": 0,
                "value": 0
            },
            "light": {
                "breakdown": "",
                "rank": 0,
                "value": 0
            },
            "martial": {
                "breakdown": "",
                "rank": 0,
                "value": 0
            },
            "medium": {
                "breakdown": "",
                "rank": 0,
                "value": 0
            },
            "simple": {
                "breakdown": "",
                "rank": 0,
                "value": 0
            },
            "unarmed": {
                "breakdown": "",
                "rank": 0,
                "value": 0
            },
            "unarmored": {
                "breakdown": "",
                "rank": 0,
                "value": 0
            }
        },
        "saves": {
            "fortitude": {
                "ability": "con",
                "breakdown": "",
                "item": 0,
                "rank": 0,
                "saveDetail": "",
                "value": 32
            },
            "reflex": {
                "ability": "dex",
                "breakdown": "",
                "item": 0,
                "rank": 0,
                "saveDetail": "",
                "value": 30
            },
            "will": {
                "ability": "wis",
                "breakdown": "",
                "item": 0,
                "rank": 0,
                "saveDetail": "",
                "value": 34
            }
        },
        "schema": {
            "version": {
                "value": ""
            }
        },
        "skills": {
            "acr": {
                "ability": "dex",
                "armor": 1,
                "breakdown": "",
                "item": 0,
                "mod": 0,
                "rank": 0,
                "value": 0
            },
            "arc": {
                "ability": "int",
                "breakdown": "",
                "item": 0,
                "mod": 0,
                "rank": 0,
                "value": 0
            },
            "ath": {
                "ability": "str",
                "armor": 1,
                "breakdown": "",
                "item": 0,
                "mod": 0,
                "rank": 0,
                "value": 0
            },
            "cra": {
                "ability": "int",
                "breakdown": "",
                "item": 0,
                "mod": 0,
                "rank": 0,
                "value": 0
            },
            "dec": {
                "ability": "cha",
                "breakdown": "",
                "item": 0,
                "mod": 0,
                "rank": 0,
                "value": 0
            },
            "dip": {
                "ability": "cha",
                "breakdown": "",
                "item": 0,
                "mod": 0,
                "rank": 0,
                "value": 0
            },
            "itm": {
                "ability": "cha",
                "breakdown": "",
                "item": 0,
                "mod": 0,
                "rank": 0,
                "value": 0
            },
            "med": {
                "ability": "wis",
                "breakdown": "",
                "item": 0,
                "mod": 0,
                "rank": 0,
                "value": 0
            },
            "nat": {
                "ability": "wis",
                "breakdown": "",
                "item": 0,
                "mod": 0,
                "rank": 0,
                "value": 0
            },
            "occ": {
                "ability": "int",
                "breakdown": "",
                "item": 0,
                "mod": 0,
                "rank": 0,
                "value": 0
            },
            "prf": {
                "ability": "cha",
                "breakdown": "",
                "item": 0,
                "mod": 0,
                "rank": 0,
                "value": 0
            },
            "rel": {
                "ability": "wis",
                "breakdown": "",
                "item": 0,
                "mod": 0,
                "rank": 0,
                "value": 0
            },
            "soc": {
                "ability": "int",
                "breakdown": "",
                "item": 0,
                "mod": 0,
                "rank": 0,
                "value": 0
            },
            "ste": {
                "ability": "dex",
                "armor": 1,
                "breakdown": "",
                "item": 0,
                "mod": 0,
                "rank": 0,
                "value": 0
            },
            "sur": {
                "ability": "wis",
                "breakdown": "",
                "item": 0,
                "mod": 0,
                "rank": 0,
                "value": 0
            },
            "thi": {
                "ability": "dex",
                "armor": 1,
                "breakdown": "",
                "item": 0,
                "mod": 0,
                "rank": 0,
                "value": 0
            }
        },
        "spells": {
            "spell0": {
                "max": 0
            },
            "spell1": {
                "max": 0
            },
            "spell10": {
                "max": 0
            },
            "spell11": {
                "max": 0
            },
            "spell2": {
                "max": 0
            },
            "spell3": {
                "max": 0
            },
            "spell4": {
                "max": 0
            },
            "spell5": {
                "max": 0
            },
            "spell6": {
                "max": 0
            },
            "spell7": {
                "max": 0
            },
            "spell8": {
                "max": 0
            },
            "spell9": {
                "max": 0
            }
        },
        "statusEffects": [],
        "traits": {
            "ci": [],
            "di": {
                "custom": "",
                "value": [
                    "electricity",
                    "paralyzed",
                    "sleep"
                ]
            },
            "dr": [],
            "dv": [],
            "languages": {
                "custom": "speak with animals",
                "selected": [],
                "value": [
                    "aquan",
                    "common",
                    "draconic",
                    "dwarven",
                    "elven",
                    "gnomish",
                    "custom"
                ]
            },
            "rarity": {
                "value": "uncommon"
            },
            "senses": {
                "value": "darkvision, scent (imprecise) 100 feet"
            },
            "size": {
                "value": "grg"
            },
            "traits": {
                "custom": "",
                "value": [
                    "amphibious",
                    "dragon",
                    "water"
                ]
            }
        }
    },
    "flags": {
        "pf2e_updatednpcsheet": {}
    },
    "img": "icons/svg/mystery-man.svg",
    "items": [
        {
            "_id": "fTTaKgIjGlb3NOqf",
            "data": {
                "ability": {
                    "value": ""
                },
                "description": {
                    "chat": "",
                    "unidentified": "",
                    "value": ""
                },
                "displayLevel": {},
                "displayLevels": {},
                "focus": {
                    "points": 1,
                    "pool": 1
                },
                "item": {
                    "value": 0
                },
                "prepared": {
                    "value": "Innate"
                },
                "proficiency": {
                    "value": 0
                },
                "rarity": {
                    "value": "common"
                },
                "showUnpreparedSpells": {
                    "value": false
                },
                "slots": {
                    "slot0": {
                        "max": 0,
                        "prepared": [],
                        "value": 0
                    },
                    "slot1": {
                        "max": 0,
                        "prepared": [],
                        "value": 0
                    },
                    "slot10": {
                        "max": 0,
                        "prepared": [],
                        "value": 0
                    },
                    "slot11": {
                        "max": 0,
                        "prepared": [],
                        "value": 0
                    },
                    "slot2": {
                        "max": 0,
                        "prepared": [],
                        "value": 0
                    },
                    "slot3": {
                        "max": 0,
                        "prepared": [],
                        "value": 0
                    },
                    "slot4": {
                        "max": 0,
                        "prepared": [],
                        "value": 0
                    },
                    "slot5": {
                        "max": 0,
                        "prepared": [],
                        "value": 0
                    },
                    "slot6": {
                        "max": 0,
                        "prepared": [],
                        "value": 0
                    },
                    "slot7": {
                        "max": 0,
                        "prepared": [],
                        "value": 0
                    },
                    "slot8": {
                        "max": 0,
                        "prepared": [],
                        "value": 0
                    },
                    "slot9": {
                        "max": 0,
                        "prepared": [],
                        "value": 0
                    }
                },
                "source": {
                    "value": ""
                },
                "spelldc": {
                    "dc": "40",
                    "item": 0,
                    "mod": 0,
                    "value": 30
                },
                "tradition": {
                    "value": "arcane"
                },
                "traits": {
                    "value": []
                },
                "usage": {
                    "value": "held-in-one-hand"
                }
            },
            "flags": {},
            "img": "icons/svg/mystery-man.svg",
            "name": "Arcane Innate Spells",
            "sort": 100000,
            "type": "spellcastingEntry"
        },
        {
            "_id": "Bj9i170w7XmPv4Ml",
            "data": {
                "ability": {
                    "label": "Spellcasting Ability",
                    "type": "String",
                    "value": ""
                },
                "area": {
                    "areaType": "",
                    "label": "Area",
                    "type": "String",
                    "value": null
                },
                "components": {
                    "label": "Spell Components",
                    "type": "String",
                    "value": "somatic, verbal"
                },
                "cost": {
                    "label": "Cost",
                    "type": "String",
                    "value": ""
                },
                "damage": {
                    "applyMod": false,
                    "label": "Spell Damage",
                    "type": "String",
                    "value": ""
                },
                "damageType": {
                    "label": "Damage Type",
                    "type": "String",
                    "value": ""
                },
                "description": {
                    "chat": "",
                    "label": "Description",
                    "type": "String",
                    "unidentified": "",
                    "value": "<p>By imposing your will upon the water, you can raise or lower the level of water in the chosen area by 10 feet. Water creatures in the area are subjected to the effects of slow.</p>"
                },
                "duration": {
                    "label": "Duration",
                    "type": "String",
                    "value": ""
                },
                "level": {
                    "label": "Spell Level",
                    "type": "Number",
                    "value": 5
                },
                "location": {
                    "value": "fTTaKgIjGlb3NOqf"
                },
                "materials": {
                    "label": "Materials",
                    "type": "String",
                    "value": ""
                },
                "prepared": {
                    "label": "Prepared Spell",
                    "type": "String",
                    "value": ""
                },
                "range": {
                    "label": "Range",
                    "type": "String",
                    "value": "500 feet"
                },
                "rarity": {
                    "value": "common"
                },
                "save": {
                    "basic": "",
                    "label": "Saving Throw",
                    "type": "String",
                    "value": ""
                },
                "scaling": {
                    "formula": "",
                    "mode": "none"
                },
                "school": {
                    "label": "Spell School",
                    "type": "String",
                    "value": "evo"
                },
                "source": {
                    "label": "Source",
                    "type": "String",
                    "value": "https://2e.aonprd.com/Spells.aspx?ID=51"
                },
                "spellCategory": {
                    "value": ""
                },
                "spellType": {
                    "label": "Spell Type",
                    "type": "String",
                    "value": "utility"
                },
                "sustained": {
                    "label": "Can be Sustained",
                    "type": "Boolean",
                    "value": false
                },
                "target": {
                    "label": "Target",
                    "type": "String",
                    "value": ""
                },
                "time": {
                    "label": "Casting Time",
                    "type": "String",
                    "value": "2"
                },
                "traditions": {
                    "label": "Spell Traditions",
                    "type": "String",
                    "value": [
                        "arcane",
                        "primal"
                    ]
                },
                "traits": {
                    "label": "Spell Traits",
                    "type": "String",
                    "value": [
                        "evocation",
                        "water"
                    ]
                },
                "usage": {
                    "value": "held-in-one-hand"
                }
            },
            "flags": {
                "dynamiceffects": {
                    "alwaysActive": false,
                    "equipActive": false
                }
            },
            "img": "systems/pf2e/icons/spells/control-water.jpg",
            "name": "Control Water ",
            "sort": 200000,
            "type": "spell"
        },
        {
            "_id": "Ccaq8plnPAhAe5ao",
            "data": {
                "ability": {
                    "label": "Spellcasting Ability",
                    "type": "String",
                    "value": ""
                },
                "area": {
                    "areaType": "burst",
                    "label": "Area",
                    "type": "String",
                    "value": 20
                },
                "components": {
                    "label": "Spell Components",
                    "type": "String",
                    "value": "material, somatic, verbal"
                },
                "cost": {
                    "label": "Cost",
                    "type": "String",
                    "value": ""
                },
                "damage": {
                    "applyMod": false,
                    "label": "Spell Damage",
                    "type": "String",
                    "value": ""
                },
                "damageType": {
                    "label": "Damage Type",
                    "type": "String",
                    "value": ""
                },
                "description": {
                    "chat": "",
                    "label": "Description",
                    "type": "String",
                    "unidentified": "",
                    "value": "<p>You call forth a cloud of mist. All creatures within the mist become @Compendium[pf2e.conditionitems.Concealed]{Concealed}, and all creatures outside the mist become @Compendium[pf2e.conditionitems.Concealed]{Concealed} to creatures within it. You can Dismiss the cloud.</p>"
                },
                "duration": {
                    "label": "Duration",
                    "type": "String",
                    "value": "1 minute"
                },
                "level": {
                    "label": "Spell Level",
                    "type": "Number",
                    "value": 2
                },
                "location": {
                    "value": "fTTaKgIjGlb3NOqf"
                },
                "materials": {
                    "label": "Materials",
                    "type": "String",
                    "value": ""
                },
                "prepared": {
                    "label": "Prepared Spell",
                    "type": "String",
                    "value": ""
                },
                "range": {
                    "label": "Range",
                    "type": "String",
                    "value": "120 feet"
                },
                "rarity": {
                    "value": "common"
                },
                "save": {
                    "basic": "",
                    "label": "Saving Throw",
                    "type": "String",
                    "value": ""
                },
                "scaling": {
                    "formula": "",
                    "mode": "none"
                },
                "school": {
                    "label": "Spell School",
                    "type": "String",
                    "value": "con"
                },
                "source": {
                    "label": "Source",
                    "type": "String",
                    "value": "https://2e.aonprd.com/Spells.aspx?ID=210"
                },
                "spellCategory": {
                    "value": ""
                },
                "spellType": {
                    "label": "Spell Type",
                    "type": "String",
                    "value": "utility"
                },
                "sustained": {
                    "label": "Can be Sustained",
                    "type": "Boolean",
                    "value": false
                },
                "target": {
                    "label": "Target",
                    "type": "String",
                    "value": ""
                },
                "time": {
                    "label": "Casting Time",
                    "type": "String",
                    "value": "3"
                },
                "traditions": {
                    "label": "Spell Traditions",
                    "type": "String",
                    "value": [
                        "arcane",
                        "primal"
                    ]
                },
                "traits": {
                    "label": "Spell Traits",
                    "type": "String",
                    "value": [
                        "conjuration",
                        "water"
                    ]
                },
                "usage": {
                    "value": "held-in-one-hand"
                }
            },
            "flags": {
                "_sheetTab": "details"
            },
            "img": "systems/pf2e/icons/spells/obscuring-mist.jpg",
            "name": "Obscuring Mist ",
            "sort": 300000,
            "type": "spell"
        },
        {
            "_id": "ZjVs8CnJOZnqIvIf",
            "data": {
                "ability": {
                    "label": "Spellcasting Ability",
                    "type": "String",
                    "value": ""
                },
                "area": {
                    "areaType": "",
                    "label": "Area",
                    "type": "String",
                    "value": null
                },
                "components": {
                    "label": "Spell Components",
                    "type": "String",
                    "value": "somatic, verbal"
                },
                "cost": {
                    "label": "Cost",
                    "type": "String",
                    "value": ""
                },
                "damage": {
                    "applyMod": false,
                    "label": "Spell Damage",
                    "type": "String",
                    "value": ""
                },
                "damageType": {
                    "label": "Damage Type",
                    "type": "String",
                    "value": ""
                },
                "description": {
                    "chat": "",
                    "label": "Description",
                    "type": "String",
                    "unidentified": "",
                    "value": "<p>You can ask questions of, receive answers from, and use the Diplomacy skill with animals. The spell doesn't make them more friendly than normal. Cunning animals are likely to be terse and evasive, while less intelligent ones often make inane comments.</p>"
                },
                "duration": {
                    "label": "Duration",
                    "type": "String",
                    "value": "10 minutes"
                },
                "level": {
                    "label": "Spell Level",
                    "type": "Number",
                    "value": 2
                },
                "location": {
                    "value": "fTTaKgIjGlb3NOqf"
                },
                "materials": {
                    "label": "Materials",
                    "type": "String",
                    "value": ""
                },
                "prepared": {
                    "label": "Prepared Spell",
                    "type": "String",
                    "value": ""
                },
                "range": {
                    "label": "Range",
                    "type": "String",
                    "value": ""
                },
                "rarity": {
                    "value": "common"
                },
                "save": {
                    "basic": "",
                    "label": "Saving Throw",
                    "type": "String",
                    "value": ""
                },
                "scaling": {
                    "formula": "",
                    "mode": "none"
                },
                "school": {
                    "label": "Spell School",
                    "type": "String",
                    "value": "div"
                },
                "source": {
                    "label": "Source",
                    "type": "String",
                    "value": "https://2e.aonprd.com/Spells.aspx?ID=293"
                },
                "spellCategory": {
                    "value": ""
                },
                "spellType": {
                    "label": "Spell Type",
                    "type": "String",
                    "value": "utility"
                },
                "sustained": {
                    "label": "Can be Sustained",
                    "type": "Boolean",
                    "value": false
                },
                "target": {
                    "label": "Target",
                    "type": "String",
                    "value": ""
                },
                "time": {
                    "label": "Casting Time",
                    "type": "String",
                    "value": "2"
                },
                "traditions": {
                    "label": "Spell Traditions",
                    "type": "String",
                    "value": [
                        "primal"
                    ]
                },
                "traits": {
                    "label": "Spell Traits",
                    "type": "String",
                    "value": [
                        "divination"
                    ]
                },
                "usage": {
                    "value": "held-in-one-hand"
                }
            },
            "flags": {
                "_sheetTab": "details"
            },
            "img": "systems/pf2e/icons/spells/speak-with-animals.jpg",
            "name": "Speak with Animals ",
            "sort": 400000,
            "type": "spell"
        },
        {
            "_id": "Y6FgWopPB5QwPfF4",
            "data": {
                "attack": {
                    "value": ""
                },
                "attackEffects": {
                    "value": []
                },
                "bonus": {
                    "total": 35,
                    "value": 35
                },
                "brokenThreshold": {
                    "value": 0
                },
                "bulkCapacity": {
                    "value": ""
                },
                "collapsed": {
                    "value": false
                },
                "containerId": {
                    "value": ""
                },
                "damage": {
                    "damageType": "piercing",
                    "die": "3d12+16"
                },
                "damageRolls": [
                    {
                        "damage": "3d12+16",
                        "damageType": "piercing"
                    },
                    {
                        "damage": "2d12",
                        "damageType": "electricity"
                    }
                ],
                "description": {
                    "chat": "",
                    "unidentified": "",
                    "value": ""
                },
                "equipped": {
                    "value": false
                },
                "equippedBulk": {
                    "value": ""
                },
                "hardness": {
                    "value": 0
                },
                "hp": {
                    "value": 0
                },
                "identified": {
                    "value": false
                },
                "invested": {
                    "value": false
                },
                "maxHp": {
                    "value": 0
                },
                "negateBulk": {
                    "value": "0"
                },
                "preciousMaterial": {
                    "value": ""
                },
                "preciousMaterialGrade": {
                    "value": ""
                },
                "price": {
                    "value": 0
                },
                "property1": {
                    "critDamage": "",
                    "critDamageType": "",
                    "critDice": 0,
                    "critDie": "",
                    "damageType": "",
                    "dice": 0,
                    "die": "",
                    "value": ""
                },
                "property2": {
                    "critDamage": "",
                    "critDamageType": "",
                    "critDice": 0,
                    "critDie": "",
                    "damageType": "",
                    "dice": 0,
                    "die": "",
                    "value": ""
                },
                "property3": {
                    "critDamage": "",
                    "critDamageType": "",
                    "critDice": 0,
                    "critDie": "",
                    "damageType": "",
                    "dice": 0,
                    "die": "",
                    "value": ""
                },
                "quantity": {
                    "value": 1
                },
                "rarity": {
                    "value": "common"
                },
                "source": {
                    "value": ""
                },
                "stackGroup": {
                    "value": ""
                },
                "traits": {
                    "value": [
                        "electricity",
                        "magical",
                        "reach 20 feet"
                    ]
                },
                "usage": {
                    "value": "held-in-one-hand"
                },
                "weight": {
                    "value": 0
                }
            },
            "flags": {
                "pf2e_updatednpcsheet": {}
            },
            "img": "icons/svg/mystery-man.svg",
            "name": "Jaws",
            "sort": 500000,
            "type": "melee"
        },
        {
            "_id": "Tc806odnsrBWGupY",
            "data": {
                "attack": {
                    "value": ""
                },
                "attackEffects": {
                    "value": []
                },
                "bonus": {
                    "total": 35,
                    "value": 35
                },
                "brokenThreshold": {
                    "value": 0
                },
                "bulkCapacity": {
                    "value": ""
                },
                "collapsed": {
                    "value": false
                },
                "containerId": {
                    "value": ""
                },
                "damage": {
                    "damageType": "slashing",
                    "die": "3d10+16"
                },
                "damageRolls": [
                    {
                        "damage": "3d10+16",
                        "damageType": "slashing"
                    }
                ],
                "description": {
                    "chat": "",
                    "unidentified": "",
                    "value": ""
                },
                "equipped": {
                    "value": false
                },
                "equippedBulk": {
                    "value": ""
                },
                "hardness": {
                    "value": 0
                },
                "hp": {
                    "value": 0
                },
                "identified": {
                    "value": false
                },
                "invested": {
                    "value": false
                },
                "maxHp": {
                    "value": 0
                },
                "negateBulk": {
                    "value": "0"
                },
                "preciousMaterial": {
                    "value": ""
                },
                "preciousMaterialGrade": {
                    "value": ""
                },
                "price": {
                    "value": 0
                },
                "property1": {
                    "critDamage": "",
                    "critDamageType": "",
                    "critDice": 0,
                    "critDie": "",
                    "damageType": "",
                    "dice": 0,
                    "die": "",
                    "value": ""
                },
                "property2": {
                    "critDamage": "",
                    "critDamageType": "",
                    "critDice": 0,
                    "critDie": "",
                    "damageType": "",
                    "dice": 0,
                    "die": "",
                    "value": ""
                },
                "property3": {
                    "critDamage": "",
                    "critDamageType": "",
                    "critDice": 0,
                    "critDie": "",
                    "damageType": "",
                    "dice": 0,
                    "die": "",
                    "value": ""
                },
                "quantity": {
                    "value": 1
                },
                "rarity": {
                    "value": "common"
                },
                "source": {
                    "value": ""
                },
                "stackGroup": {
                    "value": ""
                },
                "traits": {
                    "value": [
                        "agile",
                        "magical",
                        "reach 15 feet"
                    ]
                },
                "usage": {
                    "value": "held-in-one-hand"
                },
                "weight": {
                    "value": 0
                }
            },
            "flags": {
                "pf2e_updatednpcsheet": {}
            },
            "img": "icons/svg/mystery-man.svg",
            "name": "Claw",
            "sort": 600000,
            "type": "melee"
        },
        {
            "_id": "JjvXFkGRXacPPnXd",
            "data": {
                "attack": {
                    "value": ""
                },
                "attackEffects": {
                    "value": []
                },
                "bonus": {
                    "total": 33,
                    "value": 33
                },
                "brokenThreshold": {
                    "value": 0
                },
                "bulkCapacity": {
                    "value": ""
                },
                "collapsed": {
                    "value": false
                },
                "containerId": {
                    "value": ""
                },
                "damage": {
                    "damageType": "bludgeoning",
                    "die": "2d10+14"
                },
                "damageRolls": [
                    {
                        "damage": "2d10+14",
                        "damageType": "bludgeoning"
                    }
                ],
                "description": {
                    "chat": "",
                    "unidentified": "",
                    "value": ""
                },
                "equipped": {
                    "value": false
                },
                "equippedBulk": {
                    "value": ""
                },
                "hardness": {
                    "value": 0
                },
                "hp": {
                    "value": 0
                },
                "identified": {
                    "value": false
                },
                "invested": {
                    "value": false
                },
                "maxHp": {
                    "value": 0
                },
                "negateBulk": {
                    "value": "0"
                },
                "preciousMaterial": {
                    "value": ""
                },
                "preciousMaterialGrade": {
                    "value": ""
                },
                "price": {
                    "value": 0
                },
                "property1": {
                    "critDamage": "",
                    "critDamageType": "",
                    "critDice": 0,
                    "critDie": "",
                    "damageType": "",
                    "dice": 0,
                    "die": "",
                    "value": ""
                },
                "property2": {
                    "critDamage": "",
                    "critDamageType": "",
                    "critDice": 0,
                    "critDie": "",
                    "damageType": "",
                    "dice": 0,
                    "die": "",
                    "value": ""
                },
                "property3": {
                    "critDamage": "",
                    "critDamageType": "",
                    "critDice": 0,
                    "critDie": "",
                    "damageType": "",
                    "dice": 0,
                    "die": "",
                    "value": ""
                },
                "quantity": {
                    "value": 1
                },
                "rarity": {
                    "value": "common"
                },
                "source": {
                    "value": ""
                },
                "stackGroup": {
                    "value": ""
                },
                "traits": {
                    "value": [
                        "magical",
                        "reach 20 feet"
                    ]
                },
                "usage": {
                    "value": "held-in-one-hand"
                },
                "weight": {
                    "value": 0
                }
            },
            "flags": {
                "pf2e_updatednpcsheet": {}
            },
            "img": "icons/svg/mystery-man.svg",
            "name": "Tail",
            "sort": 700000,
            "type": "melee"
        },
        {
            "_id": "jcHkvPONg4SesmVb",
            "data": {
                "actionCategory": {
                    "value": "defensive"
                },
                "actionType": {
                    "value": "passive"
                },
                "actions": {
                    "value": ""
                },
                "description": {
                    "chat": "",
                    "unidentified": "",
                    "value": " 15 feet, [[/r 2d12 # electricity damage]] electricity damage. The bronze dragon can turn this aura on or off using a single action, which has the concentrate trait, and it can choose to not affect allies with the aura."
                },
                "rarity": {
                    "value": "common"
                },
                "requirements": {
                    "value": ""
                },
                "skill_requirements": {
                    "rank": "",
                    "skill": ""
                },
                "source": {
                    "value": ""
                },
                "traits": {
                    "value": [
                        "aura",
                        "electricity"
                    ]
                },
                "trigger": {
                    "value": ""
                },
                "usage": {
                    "value": "held-in-one-hand"
                },
                "weapon": {
                    "value": ""
                }
            },
            "flags": {},
            "img": "icons/svg/mystery-man.svg",
            "name": "Electricity Aura",
            "sort": 800000,
            "type": "action"
        },
        {
            "_id": "gXusGY96gXnuOJVw",
            "data": {
                "actionCategory": {
                    "value": "defensive"
                },
                "actionType": {
                    "value": "passive"
                },
                "actions": {
                    "value": ""
                },
                "description": {
                    "chat": "",
                    "unidentified": "",
                    "value": " 90 feet, DC 38<br /> A creature that first enters the area must attempt a Will save. Regardless of the result of the saving throw, the creature is temporarily immune to this monster's Frightful Presence for 1 minute.<br /><br /> <b>Critical Success</b> The creature is unaffected by the presence.<br /> <b>Success</b> The creature is @Compendium[pf2e.conditionitems.Frightened]{Frightened} 1.<br /> <b>Failure</b> The creature is @Compendium[pf2e.conditionitems.Frightened]{Frightened} 2.<br /> <b>Critical Failure</b> The creature is @Compendium[pf2e.conditionitems.Frightened]{Frightened} 4."
                },
                "rarity": {
                    "value": "common"
                },
                "requirements": {
                    "value": ""
                },
                "skill_requirements": {
                    "rank": "",
                    "skill": ""
                },
                "source": {
                    "value": ""
                },
                "traits": {
                    "value": [
                        "aura",
                        "emotion",
                        "fear",
                        "mental"
                    ]
                },
                "trigger": {
                    "value": ""
                },
                "usage": {
                    "value": "held-in-one-hand"
                },
                "weapon": {
                    "value": ""
                }
            },
            "flags": {},
            "img": "icons/svg/mystery-man.svg",
            "name": "Frightful Presence",
            "sort": 900000,
            "type": "action"
        },
        {
            "_id": "t0slPYAl6mytNXG7",
            "data": {
                "actionCategory": {
                    "value": "defensive"
                },
                "actionType": {
                    "value": "passive"
                },
                "actions": {
                    "value": ""
                },
                "description": {
                    "chat": "",
                    "unidentified": "",
                    "value": "; 40 feet. Water in the aura that is also in the same body of water as the dragon is difficult terrain for Swimming creatures that don't have the water trait."
                },
                "rarity": {
                    "value": "common"
                },
                "requirements": {
                    "value": ""
                },
                "skill_requirements": {
                    "rank": "",
                    "skill": ""
                },
                "source": {
                    "value": ""
                },
                "traits": {
                    "value": [
                        "aura",
                        "water"
                    ]
                },
                "trigger": {
                    "value": ""
                },
                "usage": {
                    "value": "held-in-one-hand"
                },
                "weapon": {
                    "value": ""
                }
            },
            "flags": {},
            "img": "icons/svg/mystery-man.svg",
            "name": "Vortex",
            "sort": 1000000,
            "type": "action"
        },
        {
            "_id": "JFgQx2Ewi8AMIQY2",
            "data": {
                "actionCategory": {
                    "value": "defensive"
                },
                "actionType": {
                    "value": "reaction"
                },
                "actions": {
                    "value": ""
                },
                "description": {
                    "chat": "",
                    "unidentified": "",
                    "value": "Jaws only.<br /><b>Trigger</b> A creature within the monster's reach uses a manipulate action or a move action, makes a ranged attack, or leaves a square during a move action it's using. <b>Effect</b> The monster attempts a melee Strike against the triggering creature. If the attack is a critical hit and the trigger was a manipulate action, the monster disrupts that action. This Strike doesn't count toward the monster's multiple attack penalty, and its multiple attack penalty doesn't apply to this Strike."
                },
                "rarity": {
                    "value": "common"
                },
                "requirements": {
                    "value": ""
                },
                "skill_requirements": {
                    "rank": "",
                    "skill": ""
                },
                "source": {
                    "value": ""
                },
                "traits": {
                    "value": []
                },
                "trigger": {
                    "value": ""
                },
                "usage": {
                    "value": "held-in-one-hand"
                },
                "weapon": {
                    "value": ""
                }
            },
            "flags": {},
            "img": "icons/svg/mystery-man.svg",
            "name": "Attack of Opportunity",
            "sort": 1100000,
            "type": "action"
        },
        {
            "_id": "hHrGBCeIy4565BFU",
            "data": {
                "actionCategory": {
                    "value": "defensive"
                },
                "actionType": {
                    "value": "reaction"
                },
                "actions": {
                    "value": ""
                },
                "description": {
                    "chat": "",
                    "unidentified": "",
                    "value": "; <b>Trigger</b> A creature in the dragon's vortex uses a Swim action. <b>Effect</b> The dragon creates a current of water, forcing the triggering creature to attempt a DC 40 Athletics check to Swim. If the creature fails, it's pulled 30 feet toward the dragon and the triggering action is lost. If it succeeds, it can Swim normally (using the result of that roll if it doesn't have a Swim speed)."
                },
                "rarity": {
                    "value": "common"
                },
                "requirements": {
                    "value": ""
                },
                "skill_requirements": {
                    "rank": "",
                    "skill": ""
                },
                "source": {
                    "value": ""
                },
                "traits": {
                    "value": [
                        "water"
                    ]
                },
                "trigger": {
                    "value": ""
                },
                "usage": {
                    "value": "held-in-one-hand"
                },
                "weapon": {
                    "value": ""
                }
            },
            "flags": {},
            "img": "icons/svg/mystery-man.svg",
            "name": "Vortex Pull",
            "sort": 1200000,
            "type": "action"
        },
        {
            "_id": "pSJ8UuUcEbstSlWE",
            "data": {
                "actionCategory": {
                    "value": "offensive"
                },
                "actionType": {
                    "value": "action"
                },
                "actions": {
                    "value": 2
                },
                "description": {
                    "chat": "",
                    "unidentified": "",
                    "value": "The bronze dragon breathes in one of two ways. The dragon can't use Breath Weapon again for 1d4 rounds.<ul><li><b>Lightning</b> The dragon breathes lightning in a 100-foot line that deals [[/r 12d12 # electricity damage]] electricity damage (DC 40 basic Reflex save).</li><li><b>Repulsion Gas</b> The dragon breathes a 100-foot line of repulsive gas. Each creature in the area must succeed at a DC 40 Will save or become @Compendium[pf2e.conditionitems.Fleeing]{Fleeing} from the dragon for 1 round (or 2 rounds on a critical failure).</li></ul>"
                },
                "rarity": {
                    "value": "common"
                },
                "requirements": {
                    "value": ""
                },
                "skill_requirements": {
                    "rank": "",
                    "skill": ""
                },
                "source": {
                    "value": ""
                },
                "traits": {
                    "value": [
                        "arcane",
                        "electricity",
                        "evocation",
                        "abjuration",
                        "incapacitation",
                        "mental"
                    ]
                },
                "trigger": {
                    "value": ""
                },
                "usage": {
                    "value": "held-in-one-hand"
                },
                "weapon": {
                    "value": ""
                }
            },
            "flags": {},
            "img": "icons/svg/mystery-man.svg",
            "name": "Breath Weapon",
            "sort": 1300000,
            "type": "action"
        },
        {
            "_id": "jv3hOJvw3g4A5KWY",
            "data": {
                "actionCategory": {
                    "value": "offensive"
                },
                "actionType": {
                    "value": "action"
                },
                "actions": {
                    "value": 2
                },
                "description": {
                    "chat": "",
                    "unidentified": "",
                    "value": "The dragon makes two claw Strikes and one tail Strike in any order."
                },
                "rarity": {
                    "value": "common"
                },
                "requirements": {
                    "value": ""
                },
                "skill_requirements": {
                    "rank": "",
                    "skill": ""
                },
                "source": {
                    "value": ""
                },
                "traits": {
                    "value": []
                },
                "trigger": {
                    "value": ""
                },
                "usage": {
                    "value": "held-in-one-hand"
                },
                "weapon": {
                    "value": ""
                }
            },
            "flags": {},
            "img": "icons/svg/mystery-man.svg",
            "name": "Draconic Frenzy",
            "sort": 1400000,
            "type": "action"
        },
        {
            "_id": "FDVxe2jOvdrTKmQY",
            "data": {
                "actionCategory": {
                    "value": "offensive"
                },
                "actionType": {
                    "value": "passive"
                },
                "actions": {
                    "value": ""
                },
                "description": {
                    "chat": "",
                    "unidentified": "",
                    "value": "When the dragon scores a critical hit with a Strike, it recharges its Breath Weapon."
                },
                "rarity": {
                    "value": "common"
                },
                "requirements": {
                    "value": ""
                },
                "skill_requirements": {
                    "rank": "",
                    "skill": ""
                },
                "source": {
                    "value": ""
                },
                "traits": {
                    "value": []
                },
                "trigger": {
                    "value": ""
                },
                "usage": {
                    "value": "held-in-one-hand"
                },
                "weapon": {
                    "value": ""
                }
            },
            "flags": {},
            "img": "icons/svg/mystery-man.svg",
            "name": "Draconic Momentum",
            "sort": 1500000,
            "type": "action"
        },
        {
            "_id": "055jXlPNVGmKtAdN",
            "data": {
                "actionCategory": {
                    "value": "offensive"
                },
                "actionType": {
                    "value": "passive"
                },
                "actions": {
                    "value": ""
                },
                "description": {
                    "chat": "",
                    "unidentified": "",
                    "value": "For up to 60 minutes per day, the dragon, along with allied creatures and vessels within 50 feet, can move at double their normal Speed in water."
                },
                "rarity": {
                    "value": "common"
                },
                "requirements": {
                    "value": ""
                },
                "skill_requirements": {
                    "rank": "",
                    "skill": ""
                },
                "source": {
                    "value": ""
                },
                "traits": {
                    "value": []
                },
                "trigger": {
                    "value": ""
                },
                "usage": {
                    "value": "held-in-one-hand"
                },
                "weapon": {
                    "value": ""
                }
            },
            "flags": {},
            "img": "icons/svg/mystery-man.svg",
            "name": "Water Mastery",
            "sort": 1600000,
            "type": "action"
        },
        {
            "_id": "IJosNYxnMb6x5o3I",
            "data": {
                "description": {
                    "chat": "",
                    "unidentified": "",
                    "value": ""
                },
                "featType": "",
                "item": {
                    "value": 0
                },
                "mod": {
                    "value": 28
                },
                "proficient": {
                    "value": 0
                },
                "rarity": {
                    "value": "common"
                },
                "source": {
                    "value": ""
                },
                "traits": {
                    "value": []
                },
                "usage": {
                    "value": "held-in-one-hand"
                }
            },
            "flags": {},
            "img": "icons/svg/mystery-man.svg",
            "name": "Acrobatics",
            "sort": 1700000,
            "type": "lore"
        },
        {
            "_id": "qHhkMGoHOixf7qyq",
            "data": {
                "description": {
                    "chat": "",
                    "unidentified": "",
                    "value": ""
                },
                "featType": "",
                "item": {
                    "value": 0
                },
                "mod": {
                    "value": 35
                },
                "proficient": {
                    "value": 0
                },
                "rarity": {
                    "value": "common"
                },
                "source": {
                    "value": ""
                },
                "traits": {
                    "value": []
                },
                "usage": {
                    "value": "held-in-one-hand"
                }
            },
            "flags": {},
            "img": "icons/svg/mystery-man.svg",
            "name": "Arcana",
            "sort": 1800000,
            "type": "lore"
        },
        {
            "_id": "z86SgEBQIGG6uhI6",
            "data": {
                "description": {
                    "chat": "",
                    "unidentified": "",
                    "value": ""
                },
                "featType": "",
                "item": {
                    "value": 0
                },
                "mod": {
                    "value": 34
                },
                "proficient": {
                    "value": 0
                },
                "rarity": {
                    "value": "common"
                },
                "source": {
                    "value": ""
                },
                "traits": {
                    "value": []
                },
                "usage": {
                    "value": "held-in-one-hand"
                }
            },
            "flags": {},
            "img": "icons/svg/mystery-man.svg",
            "name": "Athletics",
            "sort": 1900000,
            "type": "lore"
        },
        {
            "_id": "DsNZhOBdCCdESswG",
            "data": {
                "description": {
                    "chat": "",
                    "unidentified": "",
                    "value": ""
                },
                "featType": "",
                "item": {
                    "value": 0
                },
                "mod": {
                    "value": 32
                },
                "proficient": {
                    "value": 0
                },
                "rarity": {
                    "value": "common"
                },
                "source": {
                    "value": ""
                },
                "traits": {
                    "value": []
                },
                "usage": {
                    "value": "held-in-one-hand"
                }
            },
            "flags": {},
            "img": "icons/svg/mystery-man.svg",
            "name": "Diplomacy",
            "sort": 2000000,
            "type": "lore"
        },
        {
            "_id": "JH08ChtYh4cjIcMv",
            "data": {
                "description": {
                    "chat": "",
                    "unidentified": "",
                    "value": ""
                },
                "featType": "",
                "item": {
                    "value": 0
                },
                "mod": {
                    "value": 32
                },
                "proficient": {
                    "value": 0
                },
                "rarity": {
                    "value": "common"
                },
                "source": {
                    "value": ""
                },
                "traits": {
                    "value": []
                },
                "usage": {
                    "value": "held-in-one-hand"
                }
            },
            "flags": {},
            "img": "icons/svg/mystery-man.svg",
            "name": "Intimidation",
            "sort": 2100000,
            "type": "lore"
        },
        {
            "_id": "0R3Yc0jEh7nsOZHe",
            "data": {
                "description": {
                    "chat": "",
                    "unidentified": "",
                    "value": ""
                },
                "featType": "",
                "item": {
                    "value": 0
                },
                "mod": {
                    "value": 33
                },
                "proficient": {
                    "value": 0
                },
                "rarity": {
                    "value": "common"
                },
                "source": {
                    "value": ""
                },
                "traits": {
                    "value": []
                },
                "usage": {
                    "value": "held-in-one-hand"
                }
            },
            "flags": {},
            "img": "icons/svg/mystery-man.svg",
            "name": "Occultism",
            "sort": 2200000,
            "type": "lore"
        },
        {
            "_id": "AGvbvx81YPtlEtDj",
            "data": {
                "description": {
                    "chat": "",
                    "unidentified": "",
                    "value": ""
                },
                "featType": "",
                "item": {
                    "value": 0
                },
                "mod": {
                    "value": 33
                },
                "proficient": {
                    "value": 0
                },
                "rarity": {
                    "value": "common"
                },
                "source": {
                    "value": ""
                },
                "traits": {
                    "value": []
                },
                "usage": {
                    "value": "held-in-one-hand"
                }
            },
            "flags": {},
            "img": "icons/svg/mystery-man.svg",
            "name": "Society",
            "sort": 2300000,
            "type": "lore"
        },
        {
            "_id": "Lb7cUtIRUsIlyXYw",
            "data": {
                "description": {
                    "chat": "",
                    "unidentified": "",
                    "value": ""
                },
                "featType": "",
                "item": {
                    "value": 0
                },
                "mod": {
                    "value": 28
                },
                "proficient": {
                    "value": 0
                },
                "rarity": {
                    "value": "common"
                },
                "source": {
                    "value": ""
                },
                "traits": {
                    "value": []
                },
                "usage": {
                    "value": "held-in-one-hand"
                }
            },
            "flags": {},
            "img": "icons/svg/mystery-man.svg",
            "name": "Stealth",
            "sort": 2400000,
            "type": "lore"
        }
    ],
    "name": "Ancient Bronze Dragon",
    "permission": {
        "default": 0
    },
    "token": {
        "actorData": {},
        "actorId": "BzBFDaNj51PP97RZ",
        "actorLink": false,
        "bar1": {
            "attribute": "attributes.hp"
        },
        "bar2": {},
        "brightLight": 0,
        "brightSight": 0,
        "dimLight": 0,
        "dimSight": 0,
        "displayBars": 20,
        "displayName": 20,
        "disposition": -1,
        "flags": {},
        "height": 4,
        "img": "icons/svg/mystery-man.svg",
        "lightAlpha": 1,
        "lightAngle": 360,
        "lockRotation": false,
        "name": "Ancient Bronze Dragon",
        "randomImg": false,
        "rotation": 0,
        "scale": 1,
        "sightAngle": 360,
        "tint": null,
        "vision": false,
        "width": 4
    },
    "type": "npc"
}
